<?xml version="1.0" standalone="no"?>
<!DOCTYPE svg PUBLIC "-//W3C//DTD SVG 1.1//EN" "http://www.w3.org/Graphics/SVG/1.1/DTD/svg11.dtd" >
<svg xmlns="http://www.w3.org/2000/svg">
<metadata></metadata>
<defs>
<font id="proxima_novaregular" horiz-adv-x="1171" >
<font-face units-per-em="2048" ascent="1618" descent="-430" />
<missing-glyph horiz-adv-x="528" />
<glyph unicode="&#xfb01;" horiz-adv-x="1042" d="M33 854v135h164v76q0 154 78.5 237.5t207.5 83.5q43 0 82 -8t68 -26l-39 -117q-16 10 -37.5 17.5t-50.5 7.5q-76 0 -116 -50.5t-40 -144.5v-76h201v-135h-201v-854h-153v854h-164zM707 1233q0 43 30.5 73.5t71.5 30.5q43 0 74 -30.5t31 -73.5t-31 -73t-74 -30 q-41 0 -71.5 30t-30.5 73zM734 0v989h153v-989h-153z" />
<glyph unicode="&#xfb02;" horiz-adv-x="1042" d="M33 854v135h164v76q0 154 78.5 237.5t207.5 83.5q43 0 82 -8t68 -26l-39 -117q-16 10 -37.5 17.5t-50.5 7.5q-76 0 -116 -50.5t-40 -144.5v-76h201v-135h-201v-854h-153v854h-164zM734 0v1366h153v-1366h-153z" />
<glyph unicode="&#xfb03;" horiz-adv-x="1622" d="M33 854v135h164v76q0 154 76.5 237.5t209.5 83.5q59 0 110.5 -16t98.5 -59l-63 -101q-25 23 -54.5 36.5t-68.5 13.5q-76 0 -116 -50.5t-40 -144.5v-76h201v-135h-201v-854h-153v854h-164zM613 854v135h164v76q0 154 78.5 237.5t207.5 83.5q43 0 82 -8t68 -26l-39 -117 q-16 10 -37.5 17.5t-50.5 7.5q-76 0 -116 -50.5t-40 -144.5v-76h201v-135h-201v-854h-153v854h-164zM1288 1233q0 43 30.5 73.5t71.5 30.5q43 0 74 -30.5t31 -73.5t-31 -73t-74 -30q-41 0 -71.5 30t-30.5 73zM1315 0v989h153v-989h-153z" />
<glyph unicode="&#xfb04;" horiz-adv-x="1622" d="M33 854v135h164v76q0 154 76.5 237.5t209.5 83.5q59 0 110.5 -16t98.5 -59l-63 -101q-25 23 -54.5 36.5t-68.5 13.5q-76 0 -116 -50.5t-40 -144.5v-76h201v-135h-201v-854h-153v854h-164zM613 854v135h164v76q0 154 78.5 237.5t207.5 83.5q43 0 82 -8t68 -26l-39 -117 q-16 10 -37.5 17.5t-50.5 7.5q-76 0 -116 -50.5t-40 -144.5v-76h201v-135h-201v-854h-153v854h-164zM1315 0v1366h153v-1366h-153z" />
<glyph horiz-adv-x="0" />
<glyph horiz-adv-x="0" />
<glyph unicode="&#xd;" horiz-adv-x="0" />
<glyph unicode=" "  horiz-adv-x="528" />
<glyph unicode="&#x09;" horiz-adv-x="528" />
<glyph unicode="&#xa0;" horiz-adv-x="528" />
<glyph unicode="!" horiz-adv-x="471" d="M123 92q0 47 32.5 80t80.5 33q47 0 79.5 -33t32.5 -80q0 -45 -32.5 -78.5t-79.5 -33.5t-80 33.5t-33 78.5zM139 1366h193l-33 -983h-127z" />
<glyph unicode="&#x22;" horiz-adv-x="702" d="M111 1292q0 39 26.5 66.5t65.5 27.5q41 0 67.5 -27.5t26.5 -66.5q0 -6 -2 -27.5t-6 -54t-9.5 -72.5t-11.5 -81q-12 -96 -26 -213h-76q-16 117 -29 213q-6 41 -10 81t-8 72.5t-6 54t-2 27.5zM408 1292q0 39 26.5 66.5t67.5 27.5q39 0 65.5 -27.5t26.5 -66.5q0 -6 -2 -27.5 t-6 -54t-9.5 -72.5t-11.5 -81q-12 -96 -26 -213h-76q-16 117 -29 213q-6 41 -10 81t-8 72.5t-6 54t-2 27.5z" />
<glyph unicode="#" horiz-adv-x="1208" d="M45 371l35 108h219l135 408h-221l33 106h225l123 373h127l-123 -373h225l123 373h125l-125 -373h219l-30 -106h-224l-137 -408h227l-32 -108h-232l-123 -371h-125l125 371h-227l-123 -371h-127l125 371h-217zM424 479h225l135 408h-225z" />
<glyph unicode="$" horiz-adv-x="1214" d="M86 193l100 129q59 -68 152.5 -123.5t216.5 -69.5v500q-78 20 -154.5 46.5t-137 68.5t-97.5 105.5t-37 158.5q0 80 32 146.5t88 115.5t135 78.5t171 35.5v189h125v-191q129 -12 228.5 -60t174.5 -126l-102 -125q-61 66 -138 104.5t-163 51.5v-445q80 -23 157.5 -51.5 t139 -73.5t99.5 -112.5t38 -167.5q0 -70 -23.5 -137.5t-75.5 -123t-134 -93t-201 -46.5v-182h-125v182q-158 10 -274.5 68.5t-194.5 147.5zM305 1018q0 -43 19.5 -75t53.5 -54.5t79 -41t98 -32.5v418q-111 -8 -180.5 -65.5t-69.5 -149.5zM680 129q74 8 123 31.5t78.5 56.5 t43 70.5t13.5 74.5q0 49 -20.5 86t-55.5 64t-82 46.5t-100 35.5v-465z" />
<glyph unicode="%" horiz-adv-x="1497" d="M63 1047q0 72 24 134t67 108t103 71.5t134 25.5t135.5 -25.5t104.5 -71.5t67.5 -108.5t24.5 -133.5q0 -72 -24.5 -133.5t-67.5 -105.5t-104.5 -69.5t-135.5 -25.5t-134 25.5t-103 69.5t-67 105.5t-24 133.5zM186 1047q0 -98 56.5 -165t148.5 -67q45 0 84 18.5t66.5 49 t43 72.5t15.5 92q0 102 -58.5 168.5t-150.5 66.5t-148.5 -66.5t-56.5 -168.5zM262 0l873 1366h112l-874 -1366h-111zM776 309q0 72 23.5 134.5t66.5 108.5t103.5 71.5t134.5 25.5t134 -25.5t103 -71.5t68 -108.5t25 -134.5t-25 -133t-68 -105t-103 -70t-134 -26t-134.5 26 t-103.5 70t-66.5 105.5t-23.5 132.5zM897 309q0 -49 15.5 -91t42 -72.5t64.5 -49t85 -18.5q45 0 84 18.5t66.5 49t43 72.5t15.5 91q0 102 -58.5 169t-150.5 67t-149.5 -66.5t-57.5 -169.5z" />
<glyph unicode="&#x26;" horiz-adv-x="1312" d="M74 356q0 80 24.5 141.5t66.5 109.5t96 86t114 69q-47 78 -76 156.5t-29 150.5q0 68 27 126t73 101t109.5 66.5t134.5 23.5q68 0 124.5 -17t97.5 -52t64.5 -85t23.5 -114q0 -78 -30 -134t-79 -101t-111.5 -81t-128.5 -69q41 -57 82 -106t76 -88q41 -49 81 -94.5t81 -88.5 q57 86 93 170t54 142l134 -58q-35 -82 -80 -174t-107 -178q59 -63 125 -125.5t141 -132.5h-213q-31 27 -69.5 63.5t-79.5 79.5q-76 -76 -172 -122t-221 -46q-88 0 -166 24t-135.5 72t-91 118.5t-33.5 166.5zM240 367q0 -63 22.5 -112.5t60 -83.5t88 -51.5t103.5 -17.5 q86 0 156.5 38t130.5 98q-59 61 -109.5 116.5t-79.5 89.5q-43 49 -87 103.5t-85 114.5q-86 -53 -143 -121t-57 -174zM430 1067q0 -53 23.5 -114.5t58.5 -121.5q55 27 104.5 55.5t86 61.5t58 73t21.5 91q0 76 -46 115t-115 39q-39 0 -74 -14.5t-60.5 -41t-41 -63.5t-15.5 -80 z" />
<glyph unicode="'" horiz-adv-x="407" d="M111 1292q0 39 26.5 66.5t65.5 27.5q41 0 67.5 -27.5t26.5 -66.5q0 -6 -2 -27.5t-6 -54t-9.5 -72.5t-11.5 -81q-12 -96 -26 -213h-76q-16 117 -29 213q-6 41 -10 81t-8 72.5t-6 54t-2 27.5z" />
<glyph unicode="(" horiz-adv-x="507" d="M90 498q0 248 75 480t214 425l92 -70q-49 -98 -89 -192t-67.5 -194.5t-42 -210t-14.5 -238.5q0 -127 14.5 -237.5t42 -210t67.5 -195t89 -191.5l-92 -72q-139 190 -214 424t-75 482z" />
<glyph unicode=")" horiz-adv-x="507" d="M35 -336q49 96 89 191.5t67.5 195t43 210t15.5 237.5q0 129 -15.5 238.5t-43 210t-67.5 194.5t-89 192l92 70q141 -193 216 -425.5t75 -479.5q0 -248 -75 -481.5t-216 -424.5z" />
<glyph unicode="*" horiz-adv-x="696" d="M70 985l209 107l-209 106l45 80l196 -127l-10 235h94l-12 -235l197 127l47 -80l-209 -106l209 -107l-47 -82l-197 129l12 -235h-94l10 235l-196 -129z" />
<glyph unicode="+" horiz-adv-x="1021" d="M59 637v106h394v424h116v-424h394v-106h-394v-436h-116v436h-394z" />
<glyph unicode="," horiz-adv-x="471" d="M117 -197q49 33 88 86.5t45 104.5q-8 -4 -29 -4q-43 0 -70.5 28.5t-27.5 75.5q0 45 30.5 78t77.5 33q51 0 90 -41t39 -115q0 -94 -48 -176t-119 -133z" />
<glyph unicode="-" horiz-adv-x="614" d="M61 428v135h492v-135h-492z" />
<glyph unicode="." horiz-adv-x="471" d="M123 92q0 47 32.5 80t80.5 33q47 0 79.5 -33t32.5 -80t-32.5 -79.5t-79.5 -32.5t-80 32.5t-33 79.5z" />
<glyph unicode="/" horiz-adv-x="606" d="M0 -41l485 1448h121l-485 -1448h-121z" />
<glyph unicode="0" horiz-adv-x="1253" d="M104 682q0 125 29 251t92.5 226.5t161.5 163.5t240 63q139 0 238.5 -63t162 -163.5t92 -226.5t29.5 -251t-29.5 -251t-92 -227.5t-162 -165t-238.5 -63.5q-141 0 -239.5 63.5t-162 165t-92.5 227.5t-29 251zM279 682q0 -102 17 -201.5t58 -178.5t108 -127t165 -48 t164.5 48t107.5 127t58.5 178.5t17.5 201.5t-17.5 201.5t-58.5 177.5t-107.5 126t-164.5 48t-165 -48t-108 -126t-58 -177.5t-17 -201.5z" />
<glyph unicode="1" horiz-adv-x="694" d="M43 1014l342 352h150v-1366h-170v1141l-220 -232z" />
<glyph unicode="2" horiz-adv-x="1204" d="M109 1171q78 104 203.5 159.5t271.5 55.5q86 0 168 -24.5t146.5 -73.5t104 -125t39.5 -178q0 -104 -50 -205.5t-139 -203t-210 -207t-264 -217.5h670v-152h-938v135q184 145 325.5 263t237.5 219.5t145 190.5t49 177q0 66 -24.5 113t-64.5 77.5t-91 45t-104 14.5 q-123 0 -217.5 -47t-153.5 -125z" />
<glyph unicode="3" horiz-adv-x="1140" d="M59 201l101 106q59 -80 158.5 -130t222.5 -50q150 0 234.5 68.5t84.5 187.5q0 63 -24.5 109.5t-69.5 75t-107.5 43t-138.5 14.5h-84t-57 -2v155q16 -2 58 -2h83q63 0 121.5 13.5t101.5 41t69 69.5t26 101q0 57 -25 100.5t-65.5 73t-97 45t-118.5 15.5q-113 0 -198.5 -42 t-161.5 -124l-94 107q74 90 190.5 150t276.5 60q98 0 183 -24.5t146.5 -70.5t97.5 -114.5t36 -154.5q0 -74 -28 -129t-71 -94t-95 -62.5t-101 -31.5q47 -4 102 -27t102.5 -64t79 -102t31.5 -143q0 -86 -32.5 -158t-95 -124t-152.5 -82t-203 -30q-174 0 -298 67t-188 159z " />
<glyph unicode="4" horiz-adv-x="1142" d="M66 346v141l585 879h234v-870h192v-150h-192v-346h-170v346h-649zM236 496h479v712z" />
<glyph unicode="5" horiz-adv-x="1208" d="M135 195l105 112q68 -86 158.5 -133t217.5 -47q70 0 128.5 22.5t99.5 61.5t64.5 93t23.5 116q0 68 -23.5 122t-64.5 93t-98.5 59.5t-127.5 20.5q-92 0 -168.5 -31t-146.5 -98l-125 43v737h836v-152h-666v-475q49 49 132 86t188 37q86 0 163.5 -28.5t138 -84t96.5 -137.5 t36 -186t-37 -188t-102.5 -142.5t-155 -89.5t-191.5 -31q-174 0 -288.5 58.5t-192.5 161.5z" />
<glyph unicode="6" horiz-adv-x="1210" d="M104 680q0 139 33 267t101.5 225.5t173 155.5t247.5 58q133 0 224.5 -46t154.5 -117l-86 -127q-53 61 -118.5 100t-174.5 39q-98 0 -170.5 -46t-121 -122t-71 -172t-22.5 -197v-26.5t2 -26.5q23 35 61 73t89 68.5t111.5 51t126.5 20.5q92 0 173 -27.5t142 -82t96 -136.5 t35 -190q0 -90 -33 -171t-94 -142.5t-150 -97.5t-202 -36q-143 0 -243.5 58.5t-163 156t-91.5 224.5t-29 266zM281 506q6 -63 27.5 -131t61.5 -123t102.5 -90t152.5 -35q80 0 138 26.5t97 68.5t58.5 93.5t19.5 100.5q0 76 -24.5 131t-67.5 92t-100.5 54.5t-122.5 17.5 q-102 0 -193.5 -56.5t-148.5 -148.5z" />
<glyph unicode="7" horiz-adv-x="1054" d="M63 1214v152h932v-117l-559 -1249h-188l551 1214h-736z" />
<glyph unicode="8" horiz-adv-x="1189" d="M106 346q0 68 27 125t72 103.5t104.5 79t122.5 51.5q-59 16 -113.5 44.5t-96.5 68.5t-67.5 93.5t-25.5 120.5q0 92 41 158.5t107.5 111t149.5 64.5t169 20q84 0 168 -20t150.5 -64.5t108.5 -111t42 -158.5q0 -68 -25.5 -121t-67.5 -93t-97.5 -68.5t-114.5 -44.5 q63 -18 122.5 -51t104.5 -79.5t71.5 -103.5t26.5 -125q0 -86 -38.5 -155.5t-105.5 -116.5t-156 -73t-189 -26q-102 0 -191.5 25t-155 73t-104.5 116.5t-39 156.5zM276 365q0 -55 26 -99.5t70 -75t102.5 -47t121.5 -16.5t120.5 16.5t101.5 47t69.5 74.5t25.5 100 q0 68 -37.5 115.5t-89 79.5t-105.5 48.5t-85 20.5q-31 -4 -85 -20.5t-106.5 -48.5t-90.5 -80t-38 -115zM299 1010q0 -61 35 -104.5t83 -71t98 -41t81 -19.5q31 6 82 19.5t98 41t82 70.5t35 105q0 53 -23.5 95t-63.5 70.5t-94.5 44t-115.5 15.5t-115.5 -15.5t-94.5 -44 t-63.5 -70.5t-23.5 -95z" />
<glyph unicode="9" horiz-adv-x="1210" d="M100 942q0 88 33 169t94.5 142.5t150.5 98.5t200 37q143 0 243.5 -58.5t164 -156t92 -225.5t28.5 -267t-33 -266t-101.5 -224.5t-173 -156t-247.5 -58.5q-131 0 -222 45.5t-157 118.5l86 127q53 -61 119.5 -100t173.5 -39q104 0 177 47t119 123t67.5 172t21.5 193v27.5 t-2 27.5q-23 -35 -60.5 -73t-89 -68.5t-111 -51t-124.5 -20.5q-92 0 -174 27.5t-142.5 82t-96.5 136.5t-36 190zM272 948q0 -76 25 -131t68 -92t100 -54.5t123 -17.5q102 0 194 55.5t146 147.5q-6 63 -26.5 131t-60.5 123t-103.5 91t-151.5 36q-78 0 -137.5 -26.5 t-98.5 -68.5t-58.5 -93.5t-19.5 -100.5z" />
<glyph unicode=":" horiz-adv-x="471" d="M123 92q0 47 32.5 80t80.5 33q47 0 79.5 -33t32.5 -80t-32.5 -79.5t-79.5 -32.5t-80 32.5t-33 79.5zM123 891q0 47 32.5 80t80.5 33q47 0 79.5 -33t32.5 -80t-32.5 -80t-79.5 -33t-80 33t-33 80z" />
<glyph unicode=";" horiz-adv-x="471" d="M117 -195q49 33 88 87.5t45 105.5q-4 -2 -12.5 -4t-16.5 -2q-43 0 -70.5 29.5t-27.5 74.5q0 47 30.5 80t77.5 33q51 0 90 -41t39 -115q0 -96 -48 -178t-119 -131zM123 891q0 47 32.5 80t80.5 33q47 0 79.5 -33t32.5 -80q0 -45 -32.5 -79t-79.5 -34t-80 34t-33 79z" />
<glyph unicode="&#x3c;" horiz-adv-x="1021" d="M59 631v108l904 449v-129l-773 -375l773 -373v-127z" />
<glyph unicode="=" horiz-adv-x="1021" d="M59 432v107h904v-107h-904zM59 827v109h904v-109h-904z" />
<glyph unicode="&#x3e;" horiz-adv-x="1021" d="M59 184v127l770 373l-770 375v129l904 -449v-108z" />
<glyph unicode="?" horiz-adv-x="946" d="M37 1178q74 96 185.5 152t258.5 56q94 0 168 -24.5t126 -67.5t80 -101t28 -124q0 -78 -30 -133t-74 -98t-95 -78t-95 -69t-74 -71.5t-30 -87.5q0 -25 14.5 -52t41.5 -48l-125 -53q-41 35 -60.5 77t-19.5 89q0 66 27.5 113t68.5 83.5t89 68.5t89 65.5t69 73.5t28 95 q0 78 -59.5 134.5t-182.5 56.5q-117 0 -192.5 -46t-133.5 -122zM346 92q0 47 33 80t80 33t79.5 -33t32.5 -80t-32.5 -79.5t-79.5 -32.5t-80 32.5t-33 79.5z" />
<glyph unicode="@" horiz-adv-x="1603" d="M72 500q0 166 67.5 312t179 257t259 174.5t307.5 63.5q145 0 264 -51.5t204 -139.5t131 -205.5t46 -253.5q0 -121 -31 -211t-82 -150t-114.5 -91t-126.5 -31q-86 0 -134.5 50t-52.5 116l-2 12q-53 -76 -139 -127t-184 -51q-143 0 -228.5 92t-85.5 242q0 106 41 200.5 t108.5 164t154.5 109.5t177 40q100 0 167 -47t96 -113l26 127h140l-117 -555q-2 -10 -3 -21.5t-1 -21.5q0 -53 27.5 -79.5t68.5 -26.5q31 0 68.5 18.5t71.5 61.5t57.5 114.5t23.5 177.5q0 125 -42 231.5t-117.5 184.5t-182 121t-237.5 43q-147 0 -281.5 -60.5t-235 -162 t-160 -234.5t-59.5 -276q0 -123 44 -229.5t122 -184.5t186.5 -122t235.5 -44q111 0 204 31t177 84l37 -53q-96 -61 -203.5 -95t-222.5 -34q-139 0 -258 49t-206 136t-136 205t-49 253zM496 516q0 -98 55.5 -162.5t153.5 -64.5q53 0 99 16.5t84 43t68.5 59t53.5 65.5l59 283 q-8 25 -25.5 51.5t-43 49t-61.5 36.5t-81 14q-78 0 -143.5 -33.5t-114.5 -88t-76.5 -125t-27.5 -144.5z" />
<glyph unicode="A" horiz-adv-x="1347" d="M18 0l549 1366h211l551 -1366h-194l-121 303h-680l-121 -303h-195zM383 455h580l-289 735z" />
<glyph unicode="B" horiz-adv-x="1288" d="M160 0v1366h608q88 0 159.5 -25.5t121 -71.5t76 -110.5t26.5 -140.5q0 -66 -19.5 -119t-53.5 -93t-77 -65.5t-90 -35.5q55 -8 103.5 -39t84.5 -76t57.5 -102.5t21.5 -118.5q0 -82 -27 -149.5t-78 -117t-123.5 -76t-167.5 -26.5h-622zM330 152h418q121 0 187 62t66 173 q0 47 -16 90t-48 75t-79 51.5t-110 19.5h-418v-471zM330 774h409q117 0 176.5 62.5t59.5 156.5q0 92 -59.5 156.5t-176.5 64.5h-409v-440z" />
<glyph unicode="C" horiz-adv-x="1384" d="M104 682q0 158 54.5 288t149.5 223t223 144.5t276 51.5q90 0 167 -20.5t141.5 -57.5t116.5 -86t93 -107l-143 -80q-59 86 -158.5 142.5t-216.5 56.5q-113 0 -209 -41t-167 -114.5t-110.5 -175t-39.5 -224.5q0 -121 39.5 -223.5t110.5 -176t167 -114.5t209 -41 q117 0 216 55.5t159 143.5l145 -80q-86 -117 -212 -194t-308 -77q-147 0 -275.5 51.5t-223.5 144.5t-149.5 223t-54.5 288z" />
<glyph unicode="D" horiz-adv-x="1433" d="M160 0v1366h467q160 0 288.5 -52t220 -144.5t141.5 -217.5t50 -270t-50 -270t-141.5 -216.5t-220.5 -143.5t-288 -52h-467zM330 152h297q125 0 222 42t164.5 113.5t102.5 167.5t35 207t-35 208t-101.5 168.5t-163.5 113.5t-224 42h-297v-1062z" />
<glyph unicode="E" horiz-adv-x="1165" d="M160 0v1366h895v-152h-725v-440h710v-151h-710v-471h725v-152h-895z" />
<glyph unicode="F" horiz-adv-x="1126" d="M160 0v1366h895v-152h-725v-440h710v-151h-710v-623h-170z" />
<glyph unicode="G" horiz-adv-x="1460" d="M104 682q0 160 55.5 290t151 222t223.5 143.5t273 51.5q182 0 310 -72t220 -184l-135 -84q-66 84 -169 136t-226 52q-113 0 -209 -41t-167 -114.5t-110.5 -175t-39.5 -224.5q0 -121 39.5 -223.5t110.5 -176t167 -115.5t209 -42q61 0 116.5 13.5t102.5 35t85 48t63 50.5 v279h-469v151h638v-493q-96 -106 -232 -171t-304 -65q-145 0 -273 51.5t-223.5 144.5t-151 223t-55.5 290z" />
<glyph unicode="H" horiz-adv-x="1458" d="M160 0v1366h170v-588h798v588h170v-1366h-170v627h-798v-627h-170z" />
<glyph unicode="I" horiz-adv-x="489" d="M160 0v1366h170v-1366h-170z" />
<glyph unicode="J" horiz-adv-x="972" d="M23 133l88 129q45 -53 106.5 -94t151.5 -41q127 0 200.5 79t73.5 208v952h170v-954q0 -111 -34 -194t-92 -136t-137 -80t-171 -27q-111 0 -198 37t-158 121z" />
<glyph unicode="K" horiz-adv-x="1230" d="M160 0v1366h170v-707l604 707h213l-569 -649l618 -717h-211l-518 614l-137 -155v-459h-170z" />
<glyph unicode="L" horiz-adv-x="1044" d="M160 0v1366h170v-1214h635v-152h-805z" />
<glyph unicode="M" horiz-adv-x="1656" d="M160 0v1366h243l424 -1028l426 1028h244v-1366h-170v1124l-465 -1124h-69l-463 1124v-1124h-170z" />
<glyph unicode="N" horiz-adv-x="1449" d="M160 0v1366h174l786 -1067v1067h170v-1366h-164l-796 1090v-1090h-170z" />
<glyph unicode="O" horiz-adv-x="1566" d="M104 682q0 152 49.5 281t138.5 224t214 148.5t276 53.5q152 0 277 -53.5t214 -148.5t138 -224t49 -281t-49 -281t-138 -224t-214 -148.5t-277 -53.5t-276.5 53.5t-213.5 148.5t-138.5 224t-49.5 281zM281 682q0 -119 34.5 -220.5t100 -176t158.5 -116.5t208 -42t207 42 t157.5 116.5t101.5 176t36 220.5t-36 221.5t-101.5 176t-157.5 115.5t-207 42t-208 -42t-158.5 -115.5t-100 -176t-34.5 -221.5z" />
<glyph unicode="P" horiz-adv-x="1202" d="M160 0v1366h549q102 0 182 -33t134 -89t83 -131t29 -159t-29 -158.5t-84 -131t-135 -89t-180 -32.5h-379v-543h-170zM330 694h358q123 0 198 72t75 188q0 117 -75 188.5t-198 71.5h-358v-520z" />
<glyph unicode="Q" horiz-adv-x="1566" d="M104 682q0 152 49.5 281t138.5 224t214 148.5t276 53.5q152 0 277 -53.5t214 -148.5t138 -224t49 -281q0 -154 -49 -282t-139 -222l131 -139l-119 -102l-133 141q-78 -49 -170.5 -76t-198.5 -27q-152 0 -276.5 53.5t-213.5 148.5t-138.5 224t-49.5 281zM281 682 q0 -119 34.5 -220.5t100 -176t158.5 -116.5t208 -42q145 0 260 70l-194 211l119 100l192 -209q59 74 92 171t33 212q0 119 -36 221.5t-101.5 176t-157.5 115.5t-207 42t-208 -42t-158.5 -115.5t-100 -176t-34.5 -221.5z" />
<glyph unicode="R" horiz-adv-x="1245" d="M160 0v1366h549q94 0 171.5 -28.5t135 -83t89.5 -130t32 -170.5q0 -92 -29 -163.5t-78 -120.5t-113.5 -78t-134.5 -35l369 -557h-201l-348 543h-272v-543h-170zM330 692h358q123 0 198 73t75 189q0 117 -75 188.5t-198 71.5h-358v-522z" />
<glyph unicode="S" horiz-adv-x="1200" d="M78 193l100 129q33 -37 78 -73t99.5 -62.5t118 -43t134.5 -16.5q92 0 153.5 22.5t98.5 56.5t53.5 76t16.5 80q0 66 -35 109t-91 72.5t-129 49t-149.5 41t-149.5 48.5t-129.5 69t-91 103t-34.5 154q0 84 36 153.5t98 119.5t148 77.5t187 27.5q158 0 278.5 -49t206.5 -141 l-102 -125q-78 86 -180.5 125t-214.5 39q-123 0 -202 -59.5t-79 -157.5q0 -57 35 -94t91 -63.5t129 -46t149.5 -41t149.5 -50.5t129 -74t91 -110.5t35 -161.5q0 -74 -26.5 -146.5t-87 -129t-157 -91.5t-233.5 -35q-180 0 -309 60.5t-215 157.5z" />
<glyph unicode="T" horiz-adv-x="1167" d="M66 1214v152h1036v-152h-434v-1214h-170v1214h-432z" />
<glyph unicode="U" horiz-adv-x="1433" d="M160 530v836h170v-831q0 -188 98 -298t289 -110q190 0 288.5 109.5t98.5 298.5v831h170v-834q0 -127 -35 -230t-104.5 -176t-174 -112t-243.5 -39t-243.5 40t-174.5 112t-104.5 174t-34.5 229z" />
<glyph unicode="V" horiz-adv-x="1347" d="M18 1366h195l461 -1180l461 1180h194l-551 -1366h-211z" />
<glyph unicode="W" horiz-adv-x="1808" d="M29 1366h188l303 -1139l314 1139h141l313 -1139l301 1139h189l-389 -1366h-185l-301 1102l-301 -1102h-184z" />
<glyph unicode="X" horiz-adv-x="1335" d="M25 0l532 700l-502 666h207l406 -547l403 547h207l-500 -664l531 -702h-205l-436 582l-437 -582h-206z" />
<glyph unicode="Y" horiz-adv-x="1282" d="M18 1366h199l424 -635l424 635h199l-537 -788v-578h-170v578z" />
<glyph unicode="Z" horiz-adv-x="1198" d="M98 0v141l768 1073h-768v152h985v-141l-768 -1073h783v-152h-1000z" />
<glyph unicode="[" horiz-adv-x="497" d="M82 -389v1778h381v-113h-262v-1552h262v-113h-381z" />
<glyph unicode="\" horiz-adv-x="606" d="M0 1407h121l485 -1448h-121z" />
<glyph unicode="]" horiz-adv-x="497" d="M35 -276h262v1552h-262v113h381v-1778h-381v113z" />
<glyph unicode="^" horiz-adv-x="884" d="M39 682l346 684h117l344 -684h-127l-277 571l-276 -571h-127z" />
<glyph unicode="_" horiz-adv-x="1155" d="M-6 -82h1167v-113h-1167v113z" />
<glyph unicode="`" horiz-adv-x="462" d="M0 1434h160l303 -295h-117z" />
<glyph unicode="a" horiz-adv-x="1079" d="M98 303q0 82 31 143.5t80 102.5t110.5 60.5t124.5 19.5q102 0 185.5 -33t142.5 -102v178q0 100 -70.5 154.5t-179.5 54.5q-174 0 -303 -138l-72 107q158 164 396 164q78 0 147.5 -18.5t121.5 -58.5t83 -103.5t31 -153.5v-680h-154v113q-125 -137 -328 -138 q-63 0 -124.5 20.5t-110.5 62.5t-80 103.5t-31 141.5zM256 301q0 -94 67.5 -154.5t176.5 -60.5q82 0 154.5 30.5t117.5 92.5v186q-45 61 -117.5 92t-154.5 31q-109 0 -176.5 -60.5t-67.5 -156.5z" />
<glyph unicode="b" horiz-adv-x="1177" d="M154 0v1366h153v-526q59 82 145.5 128t188.5 46q96 0 177 -37t139.5 -104.5t91 -164t32.5 -214.5q0 -121 -32.5 -217.5t-91 -163t-139.5 -102.5t-177 -36q-104 0 -191.5 48.5t-142.5 123.5v-147h-153zM307 268q41 -66 122 -110.5t173 -44.5q76 0 135.5 28.5t100.5 79.5 t62.5 121t21.5 152t-21.5 152.5t-62.5 121.5t-100.5 80t-135.5 29q-92 0 -173 -47.5t-122 -112.5v-449z" />
<glyph unicode="c" horiz-adv-x="1013" d="M96 496q0 111 36 205t100.5 163.5t155.5 109.5t202 40q135 0 220 -49.5t142 -122.5l-102 -94q-49 68 -111.5 98.5t-140.5 30.5q-80 0 -142.5 -29t-107.5 -80t-68.5 -120.5t-23.5 -151.5t23.5 -153t68.5 -122t107.5 -79.5t142.5 -28.5q156 0 252 129l102 -95 q-57 -74 -142 -123t-220 -49q-111 0 -202 40t-155.5 110t-100.5 165t-36 206z" />
<glyph unicode="d" horiz-adv-x="1177" d="M96 494q0 119 32 215t90 163.5t139 104.5t180 37q100 0 187 -46t146 -128v526h154v-1366h-154v147q-55 -76 -142 -124t-191 -48q-96 0 -177 36t-139.5 102.5t-91.5 163t-33 217.5zM256 494q0 -82 21.5 -152t62.5 -121t100 -79.5t133 -28.5q92 0 174 45t123 110v449 q-41 66 -122.5 113t-174.5 47q-74 0 -133 -29t-100 -80t-62.5 -122t-21.5 -152z" />
<glyph unicode="e" horiz-adv-x="1153" d="M96 496q0 106 37 201.5t101.5 165t153.5 110.5t196 41q113 0 200.5 -41t149 -113t93.5 -169t32 -208v-39h-801q4 -70 30.5 -132t73 -108t110 -74t142.5 -28q86 0 166 33t140 92l73 -100q-74 -74 -172 -113t-221 -39q-111 0 -203 38t-158.5 106.5t-104.5 164t-38 212.5z M258 557h649q0 55 -19.5 113.5t-59.5 106.5t-101 79t-145 31q-80 0 -139.5 -31t-99.5 -78t-61.5 -105.5t-23.5 -115.5z" />
<glyph unicode="f" horiz-adv-x="579" d="M33 854v135h164v76q0 154 76.5 237.5t209.5 83.5q59 0 110.5 -16t98.5 -59l-63 -101q-25 23 -54.5 36.5t-68.5 13.5q-76 0 -116 -50.5t-40 -144.5v-76h201v-135h-201v-854h-153v854h-164z" />
<glyph unicode="g" horiz-adv-x="1175" d="M96 500q0 119 32 214t90 161.5t139 102.5t180 36q100 0 186 -46t145 -128v149h154v-960q0 -123 -40 -206t-105.5 -132t-150.5 -70.5t-175 -21.5q-127 0 -219 30.5t-180 116.5l77 115q61 -74 138 -104.5t184 -30.5q61 0 118.5 15t101.5 51t70.5 92.5t26.5 138.5v141 q-53 -76 -140 -126t-191 -50q-96 0 -177 34.5t-139.5 101t-91.5 161t-33 215.5zM256 500q0 -82 21.5 -150.5t62.5 -119t100 -79t133 -28.5q45 0 90.5 13.5t84 36t69.5 51t51 61.5v432q-20 33 -51 61.5t-69.5 50t-84 35t-90.5 13.5q-74 0 -133 -28t-100 -78t-62.5 -119.5 t-21.5 -151.5z" />
<glyph unicode="h" horiz-adv-x="1130" d="M154 0v1366h153v-520q27 31 64 60.5t83 54t99 39t109 14.5q156 0 235.5 -77t79.5 -239v-698h-154v651q0 66 -16 109t-45 69.5t-71 37t-91 10.5q-45 0 -88 -12.5t-81 -34t-69.5 -49t-54.5 -58.5v-723h-153z" />
<glyph unicode="i" horiz-adv-x="460" d="M127 1233q0 43 30.5 73.5t71.5 30.5q43 0 74 -30.5t31 -73.5t-31 -73t-74 -30q-41 0 -71.5 30t-30.5 73zM154 0v989h153v-989h-153z" />
<glyph unicode="j" horiz-adv-x="460" d="M-203 -328l56 117q27 -27 60.5 -45t80.5 -18q70 0 115 42t45 136v1085h153v-1085q0 -147 -76 -226t-217 -79q-76 0 -123 18t-94 55zM127 1233q0 43 30.5 73.5t71.5 30.5q43 0 74 -30.5t31 -73.5t-31 -73t-74 -30q-41 0 -71.5 30t-30.5 73z" />
<glyph unicode="k" horiz-adv-x="1052" d="M154 0v1366h153v-903l520 526h195l-438 -448l440 -541h-197l-356 444l-164 -161v-283h-153z" />
<glyph unicode="l" horiz-adv-x="460" d="M154 0v1366h153v-1366h-153z" />
<glyph unicode="m" horiz-adv-x="1654" d="M154 0v989h153v-143q14 25 46 53.5t75 54t93 43t106 17.5q115 0 179 -53.5t87 -131.5q20 33 55 67t78 59.5t94 42t105 16.5q135 0 205.5 -75t70.5 -224v-715h-153v672q0 94 -43 149.5t-140 55.5q-78 0 -150.5 -46.5t-111.5 -105.5v-725h-153v672q0 94 -42 149.5 t-141 55.5q-76 0 -147.5 -47.5t-112.5 -106.5v-723h-153z" />
<glyph unicode="n" horiz-adv-x="1128" d="M154 0v989h153v-143q27 31 64 60.5t83 54t98 39t107 14.5q315 0 316 -320v-694h-154v647q0 131 -60.5 180.5t-160.5 49.5q-45 0 -88 -12.5t-82 -34t-70.5 -49t-52.5 -58.5v-723h-153z" />
<glyph unicode="o" d="M96 496q0 106 34 201.5t97.5 165t154.5 110.5t204 41t204 -41t154.5 -110.5t97 -165t33.5 -201.5q0 -109 -33.5 -203t-97 -165t-154.5 -112t-204 -41t-204 41t-154.5 112t-97.5 165t-34 203zM256 496q0 -76 21.5 -145.5t63.5 -122t103.5 -84t141.5 -31.5t140 31.5t102 84 t63.5 122t21.5 145.5t-21.5 144.5t-63.5 120.5t-102 84t-140 32t-141.5 -32t-103.5 -84t-63.5 -121t-21.5 -144z" />
<glyph unicode="p" d="M154 -377v1366h153v-147q53 76 141.5 124t192.5 48q98 0 179 -36t139.5 -102.5t90 -163t31.5 -216.5q0 -121 -31.5 -217.5t-90 -164t-139.5 -103.5t-179 -36q-102 0 -188 45.5t-146 129.5v-527h-153zM307 272q41 -66 122 -112.5t173 -46.5q74 0 133.5 28.5t100.5 79.5 t62.5 122t21.5 153t-21.5 151.5t-62.5 120.5t-100.5 80t-133.5 29q-92 0 -173 -46.5t-122 -111.5v-447z" />
<glyph unicode="q" d="M90 496q0 121 32 217t90 162.5t139 102.5t179 36q104 0 191.5 -48t140.5 -124v147h154v-1366h-154v527q-59 -84 -145.5 -129.5t-186.5 -45.5q-98 0 -179 36t-139 103.5t-90 164t-32 217.5zM252 496q0 -82 21.5 -153t61.5 -122t99 -79.5t133 -28.5q45 0 90 13t84 34.5 t71 50.5t50 61v447q-18 33 -50 61.5t-71 50t-84 34t-90 12.5q-74 0 -133 -29t-99 -80t-61.5 -120.5t-21.5 -151.5z" />
<glyph unicode="r" horiz-adv-x="675" d="M154 0v989h153v-160q59 78 143.5 129.5t186.5 51.5v-158q-29 6 -62 6q-35 0 -74.5 -13.5t-77.5 -36t-68.5 -50t-47.5 -58.5v-700h-153z" />
<glyph unicode="s" horiz-adv-x="952" d="M68 131l79 111q49 -57 136.5 -99.5t189.5 -42.5q115 0 174.5 48.5t59.5 121.5q0 59 -45.5 91t-114 52.5t-147 38t-147.5 49t-114 84t-45 144.5q0 57 24.5 109.5t72 91.5t116 61.5t156.5 22.5q127 0 217 -42t149 -102l-71 -106q-45 53 -122 89t-173 36q-102 0 -160.5 -45 t-58.5 -111q0 -53 45 -81.5t113.5 -48t147.5 -37t147.5 -50.5t113.5 -89t45 -153q0 -61 -24.5 -116.5t-73.5 -95t-122 -63.5t-169 -24q-123 0 -223.5 38t-175.5 118z" />
<glyph unicode="t" horiz-adv-x="602" d="M20 854v135h164v271h154v-271h201v-135h-201v-614q0 -55 24.5 -91t75.5 -36q33 0 60.5 12t44.5 29l45 -115q-29 -29 -73 -46.5t-112 -17.5q-111 0 -165 60.5t-54 171.5v647h-164z" />
<glyph unicode="u" horiz-adv-x="1128" d="M154 291v698h153v-651q0 -66 15.5 -109t45 -69.5t70.5 -36.5t90 -10q90 0 170 45t123 104v727h154v-989h-154v139q-57 -66 -149 -115t-203 -49q-156 0 -235.5 77t-79.5 239z" />
<glyph unicode="v" horiz-adv-x="1003" d="M6 989h166l330 -811l327 811h168l-411 -989h-168z" />
<glyph unicode="w" horiz-adv-x="1503" d="M25 989h159l242 -788l260 788h131l260 -788l242 788h160l-316 -989h-153l-258 795l-258 -795h-154z" />
<glyph unicode="x" horiz-adv-x="995" d="M25 0l378 508l-358 481h178l275 -377l274 377h178l-358 -481l381 -508h-178l-297 406l-297 -406h-176z" />
<glyph unicode="y" horiz-adv-x="1003" d="M6 989h166l330 -811l327 811h168l-495 -1190q-45 -109 -119 -153.5t-172 -46.5q-25 0 -57.5 4t-55.5 10l25 139q16 -8 40.5 -12t43.5 -4q51 0 86 21.5t61 82.5l66 150z" />
<glyph unicode="z" horiz-adv-x="966" d="M106 0v119l545 735h-545v135h746v-117l-549 -739h557v-133h-754z" />
<glyph unicode="{" horiz-adv-x="532" d="M10 449v102q53 0 80 42t27 99v420q0 63 21.5 114.5t57 87.5t82 55.5t95.5 19.5h125v-113h-125q-55 0 -95 -46t-40 -118v-432q0 -66 -21.5 -112t-73.5 -68q51 -23 73 -69t22 -112v-432q0 -72 39.5 -117.5t95.5 -45.5h125v-113h-125q-49 0 -95.5 19.5t-82 55t-57 86 t-21.5 113.5v422q0 57 -27 99.5t-80 42.5z" />
<glyph unicode="|" horiz-adv-x="432" d="M160 -41v1448h112v-1448h-112z" />
<glyph unicode="}" horiz-adv-x="532" d="M35 -276h125q55 0 95 46t40 117v432q0 66 21.5 112t72.5 69q-51 23 -72.5 68.5t-21.5 111.5v432q0 72 -40 118t-95 46h-125v113h125q49 0 95 -19.5t82 -55.5t57.5 -87t21.5 -115v-420q0 -57 26.5 -99t79.5 -42v-102q-53 0 -79.5 -42t-26.5 -100v-422q0 -63 -21.5 -113.5 t-57.5 -86t-82 -55t-95 -19.5h-125v113z" />
<glyph unicode="~" horiz-adv-x="1030" d="M55 879q8 92 25.5 180t49.5 155.5t82 108.5t126 41q63 0 104 -28.5t67 -72.5t43 -94.5t34.5 -94.5t41 -72.5t62.5 -28.5q37 0 65.5 28.5t48 81t33 124t21.5 159.5l115 -14q-8 -92 -24.5 -179.5t-48.5 -156t-83 -109.5t-127 -41q-63 0 -103 29t-66.5 72t-43 94t-35 94 t-42 71.5t-62.5 28.5q-37 0 -65.5 -28.5t-48 -80.5t-33 -124t-21.5 -158z" />
<glyph unicode="&#xa1;" horiz-adv-x="471" d="M123 897q0 45 32.5 79t80.5 34q47 0 79.5 -34t32.5 -79q0 -47 -32.5 -80t-79.5 -33t-80 33t-33 80zM141 -377l31 983h127l33 -983h-191z" />
<glyph unicode="&#xa2;" horiz-adv-x="1013" d="M96 496q0 100 30 187t85 154.5t132 112.5t173 58v149h121v-145q115 -10 188.5 -57.5t126.5 -112.5l-102 -94q-43 59 -96.5 88.5t-116.5 37.5v-759q129 12 213 127l102 -95q-53 -68 -126.5 -113.5t-188.5 -56.5v-182h-121v187q-96 12 -173 56t-132 111.5t-85 155.5 t-30 191zM256 496q0 -143 68.5 -244.5t191.5 -130.5v745q-123 -29 -191.5 -129t-68.5 -241z" />
<glyph unicode="&#xa3;" horiz-adv-x="1060" d="M39 549v110h217q-29 33 -56.5 67t-50 72t-37 84t-14.5 101q0 84 37 157.5t99.5 128t145.5 86t177 31.5q141 0 248.5 -59t165.5 -170l-137 -82q-27 66 -96.5 117t-164.5 51q-59 0 -111 -18.5t-93 -52t-64.5 -82t-23.5 -109.5q0 -55 16 -99t40.5 -82t53.5 -72t55 -69h308 v-110h-250q6 -20 10 -42t4 -46q0 -94 -46 -159.5t-110 -111.5q23 8 50.5 13.5t56.5 5.5q49 0 86 -13.5t70.5 -28.5t68.5 -28.5t78 -13.5q68 0 120 26.5t75 55.5l73 -137q-43 -41 -110.5 -69t-165.5 -28q-70 0 -114 14.5t-81 33t-75.5 33t-96.5 14.5q-53 0 -114.5 -24 t-126.5 -58l-62 127q131 59 202 140t71 173q0 35 -8.5 64.5t-22.5 58.5h-297z" />
<glyph unicode="&#xa4;" horiz-adv-x="1224" d="M55 1145l97 94l159 -162q59 45 134 69.5t167 24.5q90 0 165 -24.5t134 -69.5l160 160l94 -94l-159 -160q47 -61 71.5 -138t24.5 -163t-24.5 -163t-69.5 -140l157 -156l-94 -92l-158 154q-59 -45 -134 -70t-167 -25t-168.5 26t-136.5 71l-153 -156l-97 92l158 158 q-45 63 -68.5 139t-23.5 162t23.5 163t70.5 138zM281 682q0 -70 21.5 -133.5t64.5 -112.5t104 -77.5t141 -28.5t142.5 28.5t104.5 77.5t63.5 112.5t21.5 133.5q0 68 -21.5 131.5t-63.5 111.5t-104.5 76.5t-142.5 28.5t-141 -28.5t-104 -76.5t-64.5 -111.5t-21.5 -131.5z" />
<glyph unicode="&#xa5;" horiz-adv-x="1282" d="M18 1366h199l424 -635l424 635h199l-465 -682h440v-106h-512v-220h512v-108h-512v-250h-170v250h-512v108h512v220h-512v106h438z" />
<glyph unicode="&#xa6;" horiz-adv-x="432" d="M160 -41v647h112v-647h-112zM160 760v647h112v-647h-112z" />
<glyph unicode="&#xa7;" horiz-adv-x="958" d="M70 -6l77 100q47 -55 128 -101t192 -46q106 0 173 46t67 132q0 63 -45.5 97t-114 55.5t-147 40t-147.5 49t-114 84t-45 143.5q0 55 19.5 98t52.5 75t75 54.5t89 34.5q-109 35 -172.5 92.5t-63.5 159.5q0 57 24.5 107.5t72 88t116 60t156.5 22.5q139 0 227 -44t137 -101 l-69 -92q-53 63 -132 93t-159 30q-98 0 -160.5 -44t-62.5 -120q0 -57 45 -88t113.5 -49.5t147.5 -35.5t147.5 -50t113.5 -88.5t45 -151.5q0 -86 -47 -153.5t-141 -108.5q86 -33 137 -90t51 -158q0 -72 -28.5 -128t-80 -94t-123 -58.5t-157.5 -20.5q-76 0 -135.5 13.5 t-106.5 35t-85 51t-70 60.5zM244 610q0 -45 24.5 -74.5t65.5 -50t93 -34t108 -27.5q82 35 126 82t44 119q0 45 -20.5 75.5t-53.5 52t-74 36t-84 24.5q-133 -35 -181 -86t-48 -117z" />
<glyph unicode="&#xa8;" horiz-adv-x="557" d="M-29 1237q0 39 28 66.5t69 27.5q39 0 66.5 -27.5t27.5 -66.5q0 -41 -28 -68.5t-66 -27.5q-41 0 -69 27.5t-28 68.5zM393 1237q0 39 29 66.5t67 27.5q39 0 68 -27.5t29 -66.5q0 -41 -29 -68.5t-68 -27.5t-67.5 27.5t-28.5 68.5z" />
<glyph unicode="&#xa9;" horiz-adv-x="1593" d="M90 684q0 147 55.5 275t151.5 224.5t225 152t275 55.5q147 0 275 -55.5t224.5 -152t151.5 -224.5t55 -275q0 -145 -55 -274t-151.5 -225.5t-224.5 -152t-275 -55.5q-145 0 -274.5 55.5t-225.5 152t-151.5 225.5t-55.5 274zM154 684q0 -133 50 -250t138 -205t205 -138 t250 -50t249.5 50t204.5 138t138.5 205t50.5 250t-50.5 250t-138.5 205t-204.5 138t-249.5 50t-250 -50t-205 -138t-138 -205t-50 -250zM375 686q0 94 33.5 174t91 138.5t135.5 91t166 32.5q96 0 171 -35.5t128 -99.5l-51 -49q-41 53 -109 85t-139 32q-70 0 -133.5 -27 t-111.5 -75t-76.5 -116.5t-28.5 -150.5q0 -80 28.5 -148.5t76.5 -117.5t111.5 -77t133.5 -28q74 0 140.5 33t107.5 86l53 -51q-55 -66 -130 -100.5t-171 -34.5q-88 0 -166 33.5t-135.5 92t-91 138.5t-33.5 174z" />
<glyph unicode="&#xaa;" horiz-adv-x="774" d="M84 864q0 53 20.5 93t52 66t72.5 39t84 13q74 0 128.5 -23.5t90.5 -62.5v113q0 63 -48 98t-113 35q-53 0 -106.5 -22.5t-96.5 -71.5l-51 76q106 111 268 110q53 0 101.5 -12t84 -39t57 -71t21.5 -105v-432h-117v71q-37 -41 -91 -64.5t-128 -23.5q-43 0 -84 14.5t-72.5 41 t-52 66.5t-20.5 91zM203 864q0 -61 43.5 -98t111.5 -37q53 0 99.5 20.5t74.5 57.5v115q-29 37 -74.5 57t-99.5 20q-68 0 -111.5 -37.5t-43.5 -97.5z" />
<glyph unicode="&#xab;" horiz-adv-x="899" d="M61 498l328 362h154l-328 -362l328 -369h-154zM356 498l328 362h154l-328 -362l328 -369h-154z" />
<glyph unicode="&#xac;" horiz-adv-x="1032" d="M59 827v109h904v-504h-113v395h-791z" />
<glyph unicode="&#xad;" horiz-adv-x="614" d="M61 428v135h492v-135h-492z" />
<glyph unicode="&#xae;" horiz-adv-x="1011" d="M72 952q0 90 33.5 170t93 138.5t138.5 92t169 33.5t170 -33.5t138 -92t92 -138.5t34 -170t-34 -168.5t-92 -138t-138 -93.5t-170 -34t-169 34t-138.5 93.5t-93 138t-33.5 168.5zM129 952q0 -78 29.5 -146.5t81 -119.5t120 -81t146.5 -30t146.5 30t118.5 81t80 119.5 t30 146.5t-30 146.5t-80 119t-118.5 80t-146.5 29.5t-146.5 -29.5t-120 -80t-81 -119t-29.5 -146.5zM340 702v498h203q63 0 110 -41t47 -110q0 -41 -15 -70t-36.5 -46.5t-43 -24.5t-32.5 -7l134 -199h-82l-129 197h-90v-197h-66zM406 958h137q33 0 61.5 26t28.5 65 q0 41 -29 67.5t-61 26.5h-137v-185z" />
<glyph unicode="&#xaf;" horiz-adv-x="743" d="M0 1171v99h743v-99h-743z" />
<glyph unicode="&#xb0;" horiz-adv-x="593" d="M47 1137q0 51 19.5 97t53.5 80t79 53t96 19t97 -19t81 -53t54.5 -80t19.5 -97q0 -53 -19.5 -98.5t-54.5 -79t-81 -53t-97 -19.5t-96 19.5t-79 53t-53.5 78.5t-19.5 99zM147 1137q0 -63 43 -107.5t105 -44.5q63 0 108.5 44.5t45.5 107.5q0 61 -45.5 106t-108.5 45 q-61 0 -104.5 -45t-43.5 -106z" />
<glyph unicode="&#xb1;" horiz-adv-x="1021" d="M59 0v106h904v-106h-904zM59 664v106h394v424h116v-424h394v-106h-394v-439h-116v439h-394z" />
<glyph unicode="&#xb2;" horiz-adv-x="794" d="M100 1564q51 66 132 97.5t169 31.5q55 0 108.5 -14t94.5 -44t65.5 -76t24.5 -107t-30.5 -121.5t-85 -120t-130 -121t-165.5 -127.5h415v-100h-596v92q117 84 205 151.5t146.5 126t88 110.5t29.5 102q0 39 -14 67.5t-38.5 47t-56.5 26.5t-65 8q-78 0 -137 -31.5t-92 -74.5 z" />
<glyph unicode="&#xb3;" horiz-adv-x="794" d="M86 981l66 78q41 -51 103 -81t134 -30q90 0 140.5 39t50.5 104q0 78 -61.5 110t-151.5 32h-50.5t-31.5 -2v102q10 -2 32.5 -2h47.5q86 0 143 29.5t57 101.5q0 63 -53 97t-129 34q-131 0 -223 -100l-64 74q47 53 121 89.5t176 36.5q131 0 213 -58t82 -161 q0 -45 -17.5 -77.5t-44 -56t-58 -37t-62.5 -19.5q29 -2 63.5 -15.5t64.5 -38t49 -60.5t19 -85q0 -104 -82.5 -170.5t-226.5 -66.5q-111 0 -188.5 38.5t-118.5 94.5z" />
<glyph unicode="&#xb4;" horiz-adv-x="462" d="M0 1139l303 295h160l-346 -295h-117z" />
<glyph unicode="&#xb5;" horiz-adv-x="1157" d="M154 -377v1366h153v-651q0 -123 60.5 -176t164.5 -53q43 0 86.5 12t81 33.5t68.5 49t53 58.5v727h154v-758q0 -53 24.5 -85.5t71.5 -32.5q23 0 39 4l12 -133q-16 -4 -37.5 -6.5t-44.5 -2.5q-98 0 -147 47.5t-66 129.5q-53 -72 -135 -124.5t-178 -52.5q-88 0 -136 29 t-71 70v-451h-153z" />
<glyph unicode="&#xb6;" horiz-adv-x="919" d="M55 1014q0 74 28 137t76 111.5t111.5 76t137.5 27.5h366v-1571h-92v1479h-182v-1479h-92v867q-74 0 -137.5 27.5t-111.5 75.5t-76 111.5t-28 137.5z" />
<glyph unicode="&#xb7;" horiz-adv-x="471" d="M123 500q0 47 32.5 79.5t80.5 32.5q47 0 79.5 -32.5t32.5 -79.5q0 -45 -32.5 -78t-79.5 -33t-80 33t-33 78z" />
<glyph unicode="&#xb8;" horiz-adv-x="419" d="M0 -330l39 78q37 -31 80 -45t84 -14q49 0 87 22.5t38 63.5q0 33 -18.5 52t-57.5 19q-47 0 -78 -34l-68 38l64 173h92l-53 -136q33 23 76 23q59 0 97 -37t38 -100q0 -76 -62.5 -120t-150.5 -44q-66 0 -121 18.5t-86 42.5z" />
<glyph unicode="&#xb9;" horiz-adv-x="481" d="M29 1456l221 225h108v-819h-122v659l-136 -141z" />
<glyph unicode="&#xba;" horiz-adv-x="829" d="M82 989q0 70 23.5 131.5t66.5 107.5t104.5 72.5t137.5 26.5q78 0 139 -26.5t104 -72.5t67 -107.5t24 -131.5t-24 -131t-67 -107t-104 -73t-139 -27q-76 0 -137.5 27t-104.5 73t-66.5 107.5t-23.5 130.5zM205 989q0 -102 54.5 -170.5t154.5 -68.5q102 0 157.5 68.5 t55.5 170.5q0 100 -55.5 168t-157.5 68q-100 0 -154.5 -67.5t-54.5 -168.5z" />
<glyph unicode="&#xbb;" horiz-adv-x="899" d="M61 129l328 369l-328 362h154l328 -362l-328 -369h-154zM356 129l328 369l-328 362h154l328 -362l-328 -369h-154z" />
<glyph unicode="&#xbc;" horiz-adv-x="1576" d="M29 1141l221 225h108v-819h-122v659l-136 -141zM221 0l872 1366h115l-875 -1366h-112zM860 205v90l352 524h170v-514h119v-100h-119v-205h-121v205h-401zM983 305h278v406z" />
<glyph unicode="&#xbd;" horiz-adv-x="1652" d="M29 1141l221 225h108v-819h-122v659l-136 -141zM221 0l872 1366h115l-875 -1366h-112zM956 702q51 66 132 97.5t169 31.5q55 0 108.5 -14t94.5 -44t65.5 -76t24.5 -107t-30.5 -121.5t-85 -120t-130 -121t-165.5 -127.5h415v-100h-596v92q117 84 205 151.5t146.5 126 t88 110.5t29.5 102q0 39 -14 67.5t-38.5 47t-56.5 26.5t-65 8q-78 0 -137 -31.5t-92 -74.5z" />
<glyph unicode="&#xbe;" horiz-adv-x="1798" d="M86 666l66 78q41 -51 103 -81t134 -30q90 0 140.5 39t50.5 104q0 78 -61.5 110t-151.5 32h-50.5t-31.5 -2v102q10 -2 32.5 -2h47.5q86 0 143 29.5t57 101.5q0 63 -53 97t-129 34q-131 0 -223 -100l-64 74q47 53 121 89.5t176 36.5q131 0 213 -58t82 -161 q0 -45 -17.5 -77.5t-44 -56t-58 -37t-62.5 -19.5q29 -2 63.5 -15.5t64.5 -38t49 -60.5t19 -85q0 -104 -82.5 -170.5t-226.5 -66.5q-111 0 -188.5 38.5t-118.5 94.5zM443 0l872 1366h115l-875 -1366h-112zM1084 205v90l352 524h170v-514h119v-100h-119v-205h-121v205h-401z M1207 305h278v406z" />
<glyph unicode="&#xbf;" horiz-adv-x="806" d="M63 -84q0 78 30 133t73 98t95 78t95 69t73 70.5t30 88.5q0 25 -14.5 52t-38.5 46l122 55q80 -72 80 -168q0 -66 -27.5 -112.5t-68.5 -83.5t-88 -69t-88 -65.5t-68.5 -73.5t-27.5 -95q0 -76 59 -132.5t180 -56.5q117 0 194 45t134 121l100 -109q-74 -98 -184.5 -153 t-257.5 -55q-94 0 -168 24.5t-126 67.5t-80 101t-28 124zM375 895q0 47 32.5 81t79.5 34t80 -34t33 -81q0 -45 -32.5 -78t-80.5 -33q-47 0 -79.5 33t-32.5 78z" />
<glyph unicode="&#xc0;" horiz-adv-x="1347" d="M18 0l549 1366h211l551 -1366h-194l-121 303h-680l-121 -303h-195zM328 1776h160l303 -295h-117zM383 455h580l-289 735z" />
<glyph unicode="&#xc1;" horiz-adv-x="1347" d="M18 0l549 1366h211l551 -1366h-194l-121 303h-680l-121 -303h-195zM383 455h580l-289 735zM557 1481l303 295h160l-346 -295h-117z" />
<glyph unicode="&#xc2;" horiz-adv-x="1347" d="M18 0l549 1366h211l551 -1366h-194l-121 303h-680l-121 -303h-195zM383 455h580l-289 735zM406 1481l195 295h147l201 -295h-105l-170 217l-164 -217h-104z" />
<glyph unicode="&#xc3;" horiz-adv-x="1347" d="M18 0l549 1366h211l551 -1366h-194l-121 303h-680l-121 -303h-195zM354 1489q0 121 50 197.5t149 76.5q55 0 87.5 -29.5t56.5 -64.5t47.5 -64.5t60.5 -29.5q41 0 69.5 42t28.5 134h92q0 -121 -50.5 -197.5t-148.5 -76.5q-55 0 -87.5 29.5t-57.5 64.5t-47.5 64.5 t-59.5 29.5q-41 0 -69.5 -42t-28.5 -134h-92zM383 455h580l-289 735z" />
<glyph unicode="&#xc4;" horiz-adv-x="1347" d="M18 0l549 1366h211l551 -1366h-194l-121 303h-680l-121 -303h-195zM368 1579q0 39 28 66.5t69 27.5q39 0 66.5 -27.5t27.5 -66.5q0 -41 -28 -68.5t-66 -27.5q-41 0 -69 27.5t-28 68.5zM383 455h580l-289 735zM790 1579q0 39 29 66.5t67 27.5q39 0 68 -27.5t29 -66.5 q0 -41 -29 -68.5t-68 -27.5t-67.5 27.5t-28.5 68.5z" />
<glyph unicode="&#xc5;" horiz-adv-x="1347" d="M18 0l549 1366h211l551 -1366h-194l-121 303h-680l-121 -303h-195zM383 455h580l-289 735zM473 1614q0 41 15.5 77.5t43 64.5t64.5 44.5t78 16.5t77.5 -16.5t64.5 -44.5t43 -64.5t15 -77.5q0 -84 -58 -142.5t-142 -58.5t-142.5 58.5t-58.5 142.5zM555 1614q0 -49 35 -85 t84 -36q51 0 84.5 36t33.5 85q0 51 -33.5 86t-84.5 35q-49 0 -84 -35t-35 -86z" />
<glyph unicode="&#xc6;" horiz-adv-x="1939" d="M14 0l852 1366h963v-152h-725v-440h711v-151h-711v-471h725v-152h-895v303h-539l-186 -303h-195zM479 455h455v735z" />
<glyph unicode="&#xc7;" horiz-adv-x="1384" d="M104 682q0 158 54.5 288t149.5 223t223 144.5t276 51.5q90 0 167 -20.5t141.5 -57.5t116.5 -86t93 -107l-143 -80q-59 86 -158.5 142.5t-216.5 56.5q-113 0 -209 -41t-167 -114.5t-110.5 -175t-39.5 -224.5q0 -121 39.5 -223.5t110.5 -176t167 -114.5t209 -41 q117 0 216 55.5t159 143.5l145 -80q-43 -57 -93 -105.5t-111.5 -84.5t-135.5 -57.5t-160 -23.5l-30 -79q33 23 75 22q59 0 97.5 -37t38.5 -100q0 -76 -62.5 -120t-150.5 -44q-66 0 -121.5 18.5t-85.5 42.5l39 78q37 -31 80 -45t84 -14q49 0 86.5 22.5t37.5 63.5 q0 33 -18 52.5t-57 19.5q-47 0 -78 -35l-68 39l43 121q-135 12 -250.5 67t-200.5 147.5t-133.5 216.5t-48.5 271z" />
<glyph unicode="&#xc8;" horiz-adv-x="1165" d="M160 0v1366h895v-152h-725v-440h710v-151h-710v-471h725v-152h-895zM260 1776h160l303 -295h-117z" />
<glyph unicode="&#xc9;" horiz-adv-x="1165" d="M160 0v1366h895v-152h-725v-440h710v-151h-710v-471h725v-152h-895zM489 1481l303 295h160l-346 -295h-117z" />
<glyph unicode="&#xca;" horiz-adv-x="1165" d="M160 0v1366h895v-152h-725v-440h710v-151h-710v-471h725v-152h-895zM334 1481l195 295h147l201 -295h-105l-170 217l-164 -217h-104z" />
<glyph unicode="&#xcb;" horiz-adv-x="1165" d="M160 0v1366h895v-152h-725v-440h710v-151h-710v-471h725v-152h-895zM299 1579q0 39 28 66.5t69 27.5q39 0 66.5 -27.5t27.5 -66.5q0 -41 -28 -68.5t-66 -27.5q-41 0 -69 27.5t-28 68.5zM721 1579q0 39 29 66.5t67 27.5q39 0 68 -27.5t29 -66.5q0 -41 -29 -68.5t-68 -27.5 t-67.5 27.5t-28.5 68.5z" />
<glyph unicode="&#xcc;" horiz-adv-x="489" d="M-100 1776h160l303 -295h-117zM160 0v1366h170v-1366h-170z" />
<glyph unicode="&#xcd;" horiz-adv-x="489" d="M129 1481l303 295h160l-346 -295h-117zM160 0v1366h170v-1366h-170z" />
<glyph unicode="&#xce;" horiz-adv-x="489" d="M-23 1481l195 295h147l201 -295h-105l-170 217l-164 -217h-104zM160 0v1366h170v-1366h-170z" />
<glyph unicode="&#xcf;" horiz-adv-x="489" d="M-60 1579q0 39 28 66.5t69 27.5q39 0 66.5 -27.5t27.5 -66.5q0 -41 -28 -68.5t-66 -27.5q-41 0 -69 27.5t-28 68.5zM160 0v1366h170v-1366h-170zM362 1579q0 39 29 66.5t67 27.5q39 0 68 -27.5t29 -66.5q0 -41 -29 -68.5t-68 -27.5t-67.5 27.5t-28.5 68.5z" />
<glyph unicode="&#xd0;" horiz-adv-x="1490" d="M20 612v125h197v629h467q160 0 289 -52t220 -144.5t141 -217.5t50 -270t-50 -270t-141 -216.5t-220 -143.5t-289 -52h-467v612h-197zM387 152h297q125 0 222.5 42t165 113.5t102 167.5t34.5 207t-34.5 208t-101 168.5t-164 113.5t-224.5 42h-297v-477h346v-125h-346v-460 z" />
<glyph unicode="&#xd1;" horiz-adv-x="1449" d="M160 0v1366h174l786 -1067v1067h170v-1366h-164l-796 1090v-1090h-170zM401 1489q0 121 50 197.5t149 76.5q55 0 87.5 -29.5t56.5 -64.5t47.5 -64.5t60.5 -29.5q41 0 69.5 42t28.5 134h92q0 -121 -50.5 -197.5t-148.5 -76.5q-55 0 -87.5 29.5t-57.5 64.5t-47.5 64.5 t-59.5 29.5q-41 0 -69.5 -42t-28.5 -134h-92z" />
<glyph unicode="&#xd2;" horiz-adv-x="1566" d="M104 682q0 152 49.5 281t138.5 224t214 148.5t276 53.5q152 0 277 -53.5t214 -148.5t138 -224t49 -281t-49 -281t-138 -224t-214 -148.5t-277 -53.5t-276.5 53.5t-213.5 148.5t-138.5 224t-49.5 281zM281 682q0 -119 34.5 -220.5t100 -176t158.5 -116.5t208 -42t207 42 t157.5 116.5t101.5 176t36 220.5t-36 221.5t-101.5 176t-157.5 115.5t-207 42t-208 -42t-158.5 -115.5t-100 -176t-34.5 -221.5zM438 1776h160l303 -295h-117z" />
<glyph unicode="&#xd3;" horiz-adv-x="1566" d="M104 682q0 152 49.5 281t138.5 224t214 148.5t276 53.5q152 0 277 -53.5t214 -148.5t138 -224t49 -281t-49 -281t-138 -224t-214 -148.5t-277 -53.5t-276.5 53.5t-213.5 148.5t-138.5 224t-49.5 281zM281 682q0 -119 34.5 -220.5t100 -176t158.5 -116.5t208 -42t207 42 t157.5 116.5t101.5 176t36 220.5t-36 221.5t-101.5 176t-157.5 115.5t-207 42t-208 -42t-158.5 -115.5t-100 -176t-34.5 -221.5zM668 1481l303 295h160l-346 -295h-117z" />
<glyph unicode="&#xd4;" horiz-adv-x="1566" d="M104 682q0 152 49.5 281t138.5 224t214 148.5t276 53.5q152 0 277 -53.5t214 -148.5t138 -224t49 -281t-49 -281t-138 -224t-214 -148.5t-277 -53.5t-276.5 53.5t-213.5 148.5t-138.5 224t-49.5 281zM281 682q0 -119 34.5 -220.5t100 -176t158.5 -116.5t208 -42t207 42 t157.5 116.5t101.5 176t36 220.5t-36 221.5t-101.5 176t-157.5 115.5t-207 42t-208 -42t-158.5 -115.5t-100 -176t-34.5 -221.5zM516 1481l195 295h147l201 -295h-105l-170 217l-164 -217h-104z" />
<glyph unicode="&#xd5;" horiz-adv-x="1566" d="M104 682q0 152 49.5 281t138.5 224t214 148.5t276 53.5q152 0 277 -53.5t214 -148.5t138 -224t49 -281t-49 -281t-138 -224t-214 -148.5t-277 -53.5t-276.5 53.5t-213.5 148.5t-138.5 224t-49.5 281zM281 682q0 -119 34.5 -220.5t100 -176t158.5 -116.5t208 -42t207 42 t157.5 116.5t101.5 176t36 220.5t-36 221.5t-101.5 176t-157.5 115.5t-207 42t-208 -42t-158.5 -115.5t-100 -176t-34.5 -221.5zM463 1489q0 121 50 197.5t149 76.5q55 0 87.5 -29.5t56.5 -64.5t47.5 -64.5t60.5 -29.5q41 0 69.5 42t28.5 134h92q0 -121 -50.5 -197.5 t-148.5 -76.5q-55 0 -87.5 29.5t-57.5 64.5t-47.5 64.5t-59.5 29.5q-41 0 -69.5 -42t-28.5 -134h-92z" />
<glyph unicode="&#xd6;" horiz-adv-x="1566" d="M104 682q0 152 49.5 281t138.5 224t214 148.5t276 53.5q152 0 277 -53.5t214 -148.5t138 -224t49 -281t-49 -281t-138 -224t-214 -148.5t-277 -53.5t-276.5 53.5t-213.5 148.5t-138.5 224t-49.5 281zM281 682q0 -119 34.5 -220.5t100 -176t158.5 -116.5t208 -42t207 42 t157.5 116.5t101.5 176t36 220.5t-36 221.5t-101.5 176t-157.5 115.5t-207 42t-208 -42t-158.5 -115.5t-100 -176t-34.5 -221.5zM475 1579q0 39 28 66.5t69 27.5q39 0 66.5 -27.5t27.5 -66.5q0 -41 -28 -68.5t-66 -27.5q-41 0 -69 27.5t-28 68.5zM897 1579q0 39 29 66.5 t67 27.5q39 0 68 -27.5t29 -66.5q0 -41 -29 -68.5t-68 -27.5t-67.5 27.5t-28.5 68.5z" />
<glyph unicode="&#xd7;" horiz-adv-x="1021" d="M131 379l303 305l-303 303l76 78l303 -305l305 305l76 -78l-303 -303l303 -305l-76 -76l-305 305l-303 -305z" />
<glyph unicode="&#xd8;" horiz-adv-x="1566" d="M104 682q0 152 49.5 281t138.5 224t214 148.5t276 53.5q98 0 183.5 -23t158.5 -63l43 63h136l-86 -127q117 -96 180 -239.5t63 -317.5q0 -152 -49 -281t-138 -224t-214 -148.5t-277 -53.5q-102 0 -190 24t-164 69l-45 -68h-135l90 133q-111 96 -172.5 236.5t-61.5 312.5z M281 682q0 -127 38.5 -232.5t110.5 -179.5l606 901q-53 31 -117.5 48.5t-136.5 17.5q-115 0 -208 -42t-158.5 -115.5t-100 -176t-34.5 -221.5zM516 199q112 -72 266 -72q115 0 207 42t157.5 116.5t101.5 176t36 220.5q0 129 -41 237.5t-119 182.5z" />
<glyph unicode="&#xd9;" horiz-adv-x="1433" d="M160 530v836h170v-831q0 -188 98 -298t289 -110q190 0 288.5 109.5t98.5 298.5v831h170v-834q0 -127 -35 -230t-104.5 -176t-174 -112t-243.5 -39t-243.5 40t-174.5 112t-104.5 174t-34.5 229zM371 1776h160l303 -295h-117z" />
<glyph unicode="&#xda;" horiz-adv-x="1433" d="M160 530v836h170v-831q0 -188 98 -298t289 -110q190 0 288.5 109.5t98.5 298.5v831h170v-834q0 -127 -35 -230t-104.5 -176t-174 -112t-243.5 -39t-243.5 40t-174.5 112t-104.5 174t-34.5 229zM600 1481l303 295h160l-346 -295h-117z" />
<glyph unicode="&#xdb;" horiz-adv-x="1433" d="M160 530v836h170v-831q0 -188 98 -298t289 -110q190 0 288.5 109.5t98.5 298.5v831h170v-834q0 -127 -35 -230t-104.5 -176t-174 -112t-243.5 -39t-243.5 40t-174.5 112t-104.5 174t-34.5 229zM451 1481l195 295h147l201 -295h-105l-170 217l-164 -217h-104z" />
<glyph unicode="&#xdc;" horiz-adv-x="1433" d="M160 530v836h170v-831q0 -188 98 -298t289 -110q190 0 288.5 109.5t98.5 298.5v831h170v-834q0 -127 -35 -230t-104.5 -176t-174 -112t-243.5 -39t-243.5 40t-174.5 112t-104.5 174t-34.5 229zM411 1579q0 39 28 66.5t69 27.5q39 0 66.5 -27.5t27.5 -66.5 q0 -41 -28 -68.5t-66 -27.5q-41 0 -69 27.5t-28 68.5zM833 1579q0 39 29 66.5t67 27.5q39 0 68 -27.5t29 -66.5q0 -41 -29 -68.5t-68 -27.5t-67.5 27.5t-28.5 68.5z" />
<glyph unicode="&#xdd;" horiz-adv-x="1282" d="M18 1366h199l424 -635l424 635h199l-537 -788v-578h-170v578zM524 1481l303 295h160l-346 -295h-117z" />
<glyph unicode="&#xde;" horiz-adv-x="1202" d="M160 0v1366h170v-244h379q102 0 182 -32.5t134 -90t83 -132t29 -158.5t-29 -159t-84 -130t-135 -88t-180 -33h-379v-299h-170zM330 451h358q123 0 198 70.5t75 187.5t-75 189.5t-198 72.5h-358v-520z" />
<glyph unicode="&#xdf;" horiz-adv-x="1222" d="M154 0v1022q0 76 27.5 142.5t77.5 115.5t123 77.5t163 28.5q70 0 135 -17t114.5 -51t79 -82t29.5 -108q0 -57 -22.5 -96t-57.5 -69.5t-73.5 -54t-73.5 -49t-57.5 -56.5t-22.5 -72q0 -53 44 -80.5t108.5 -46t141.5 -36t141.5 -50.5t108.5 -89.5t44 -152.5 q0 -59 -23.5 -114.5t-72 -96t-120 -65.5t-165.5 -25q-74 0 -131.5 12.5t-101.5 34t-79.5 51t-68.5 62.5l78 107q43 -57 120.5 -99.5t182.5 -42.5q117 0 174 53.5t57 118.5q0 59 -44 91t-108.5 53.5t-141 39t-141 48.5t-109 83t-44.5 142q0 55 23 96t55.5 73t71.5 56.5 t71.5 48t55 49t22.5 58.5q0 35 -18 60.5t-47 43t-64.5 26.5t-72.5 9q-49 0 -91 -15t-75 -45t-51.5 -72t-18.5 -95v-1022h-153z" />
<glyph unicode="&#xe0;" horiz-adv-x="1079" d="M98 303q0 82 31 143.5t80 102.5t110.5 60.5t124.5 19.5q102 0 185.5 -33t142.5 -102v178q0 100 -70.5 154.5t-179.5 54.5q-174 0 -303 -138l-72 107q158 164 396 164q78 0 147.5 -18.5t121.5 -58.5t83 -103.5t31 -153.5v-680h-154v113q-125 -137 -328 -138 q-63 0 -124.5 20.5t-110.5 62.5t-80 103.5t-31 141.5zM197 1434h160l303 -295h-117zM256 301q0 -94 67.5 -154.5t176.5 -60.5q82 0 154.5 30.5t117.5 92.5v186q-45 61 -117.5 92t-154.5 31q-109 0 -176.5 -60.5t-67.5 -156.5z" />
<glyph unicode="&#xe1;" horiz-adv-x="1079" d="M98 303q0 82 31 143.5t80 102.5t110.5 60.5t124.5 19.5q102 0 185.5 -33t142.5 -102v178q0 100 -70.5 154.5t-179.5 54.5q-174 0 -303 -138l-72 107q158 164 396 164q78 0 147.5 -18.5t121.5 -58.5t83 -103.5t31 -153.5v-680h-154v113q-125 -137 -328 -138 q-63 0 -124.5 20.5t-110.5 62.5t-80 103.5t-31 141.5zM256 301q0 -94 67.5 -154.5t176.5 -60.5q82 0 154.5 30.5t117.5 92.5v186q-45 61 -117.5 92t-154.5 31q-109 0 -176.5 -60.5t-67.5 -156.5zM426 1139l303 295h160l-346 -295h-117z" />
<glyph unicode="&#xe2;" horiz-adv-x="1079" d="M98 303q0 82 31 143.5t80 102.5t110.5 60.5t124.5 19.5q102 0 185.5 -33t142.5 -102v178q0 100 -70.5 154.5t-179.5 54.5q-174 0 -303 -138l-72 107q158 164 396 164q78 0 147.5 -18.5t121.5 -58.5t83 -103.5t31 -153.5v-680h-154v113q-125 -137 -328 -138 q-63 0 -124.5 20.5t-110.5 62.5t-80 103.5t-31 141.5zM256 301q0 -94 67.5 -154.5t176.5 -60.5q82 0 154.5 30.5t117.5 92.5v186q-45 61 -117.5 92t-154.5 31q-109 0 -176.5 -60.5t-67.5 -156.5zM272 1139l195 295h147l201 -295h-105l-170 217l-164 -217h-104z" />
<glyph unicode="&#xe3;" horiz-adv-x="1079" d="M98 303q0 82 31 143.5t80 102.5t110.5 60.5t124.5 19.5q102 0 185.5 -33t142.5 -102v178q0 100 -70.5 154.5t-179.5 54.5q-174 0 -303 -138l-72 107q158 164 396 164q78 0 147.5 -18.5t121.5 -58.5t83 -103.5t31 -153.5v-680h-154v113q-125 -137 -328 -138 q-63 0 -124.5 20.5t-110.5 62.5t-80 103.5t-31 141.5zM223 1147q0 121 50 197.5t149 76.5q55 0 87.5 -29.5t56.5 -64.5t47.5 -64.5t60.5 -29.5q41 0 69.5 42t28.5 134h92q0 -121 -50.5 -197.5t-148.5 -76.5q-55 0 -87.5 29.5t-57.5 64.5t-47.5 64.5t-59.5 29.5 q-41 0 -69.5 -42t-28.5 -134h-92zM256 301q0 -94 67.5 -154.5t176.5 -60.5q82 0 154.5 30.5t117.5 92.5v186q-45 61 -117.5 92t-154.5 31q-109 0 -176.5 -60.5t-67.5 -156.5z" />
<glyph unicode="&#xe4;" horiz-adv-x="1079" d="M98 303q0 82 31 143.5t80 102.5t110.5 60.5t124.5 19.5q102 0 185.5 -33t142.5 -102v178q0 100 -70.5 154.5t-179.5 54.5q-174 0 -303 -138l-72 107q158 164 396 164q78 0 147.5 -18.5t121.5 -58.5t83 -103.5t31 -153.5v-680h-154v113q-125 -137 -328 -138 q-63 0 -124.5 20.5t-110.5 62.5t-80 103.5t-31 141.5zM235 1237q0 39 28 66.5t69 27.5q39 0 66.5 -27.5t27.5 -66.5q0 -41 -28 -68.5t-66 -27.5q-41 0 -69 27.5t-28 68.5zM256 301q0 -94 67.5 -154.5t176.5 -60.5q82 0 154.5 30.5t117.5 92.5v186q-45 61 -117.5 92 t-154.5 31q-109 0 -176.5 -60.5t-67.5 -156.5zM657 1237q0 39 29 66.5t67 27.5q39 0 68 -27.5t29 -66.5q0 -41 -29 -68.5t-68 -27.5t-67.5 27.5t-28.5 68.5z" />
<glyph unicode="&#xe5;" horiz-adv-x="1079" d="M98 303q0 82 31 143.5t80 102.5t110.5 60.5t124.5 19.5q102 0 185.5 -33t142.5 -102v178q0 100 -70.5 154.5t-179.5 54.5q-174 0 -303 -138l-72 107q158 164 396 164q78 0 147.5 -18.5t121.5 -58.5t83 -103.5t31 -153.5v-680h-154v113q-125 -137 -328 -138 q-63 0 -124.5 20.5t-110.5 62.5t-80 103.5t-31 141.5zM256 301q0 -94 67.5 -154.5t176.5 -60.5q82 0 154.5 30.5t117.5 92.5v186q-45 61 -117.5 92t-154.5 31q-109 0 -176.5 -60.5t-67.5 -156.5zM342 1313q0 41 15.5 77.5t43 64.5t64.5 44.5t78 16.5t77.5 -16.5t64.5 -44.5 t43 -64.5t15 -77.5q0 -84 -58 -142.5t-142 -58.5t-142.5 58.5t-58.5 142.5zM424 1313q0 -49 35 -85t84 -36q51 0 84.5 36t33.5 85q0 51 -33.5 86t-84.5 35q-49 0 -84 -35t-35 -86z" />
<glyph unicode="&#xe6;" horiz-adv-x="1820" d="M98 303q0 80 30 140.5t80 102.5t116.5 62.5t138.5 20.5q111 0 202 -32t156 -99v176q0 98 -74.5 152.5t-197.5 54.5q-98 0 -178 -33t-152 -105l-72 107q162 164 420 164q61 0 117.5 -12.5t104 -39t81 -66.5t48.5 -97q51 90 141 152.5t225 62.5q106 0 188 -41t138.5 -113 t86 -169t29.5 -208v-39h-751q6 -70 30.5 -131t66.5 -107t100.5 -73t132.5 -27q80 0 154.5 32t129.5 93l74 -104q-72 -74 -166 -113t-199 -39q-131 0 -233 57.5t-162 180.5q-53 -106 -161.5 -172t-245.5 -66q-80 0 -152 20.5t-127 62.5t-87 103.5t-32 141.5zM256 311 q0 -94 73.5 -149.5t194.5 -55.5q66 0 120 23t94 59.5t61.5 83.5t21.5 97v24q-51 59 -130 92t-167 33q-121 0 -194.5 -56t-73.5 -151zM975 557h600q0 55 -17.5 113.5t-54.5 106.5t-93 79t-136 31q-74 0 -128 -31t-92 -78t-57.5 -105.5t-21.5 -115.5z" />
<glyph unicode="&#xe7;" horiz-adv-x="1013" d="M96 496q0 111 36 205t100.5 163.5t155.5 109.5t202 40q135 0 220 -49.5t142 -122.5l-102 -94q-49 68 -111.5 98.5t-140.5 30.5q-80 0 -142.5 -29t-107.5 -80t-68.5 -120.5t-23.5 -151.5t23.5 -153t68.5 -122t107.5 -79.5t142.5 -28.5q156 0 252 129l102 -95 q-53 -70 -130 -115.5t-195 -54.5l-33 -86q33 23 76 23q59 0 97 -37t38 -100q0 -76 -62.5 -120t-150.5 -44q-66 0 -121 18.5t-86 42.5l39 78q37 -31 80 -45t84 -14q49 0 87 22.5t38 63.5q0 33 -18.5 52t-57.5 19q-47 0 -78 -34l-67 39l45 125q-98 8 -180.5 51t-139.5 111.5 t-89 158.5t-32 195z" />
<glyph unicode="&#xe8;" horiz-adv-x="1153" d="M96 496q0 106 37 201.5t101.5 165t153.5 110.5t196 41q113 0 200.5 -41t149 -113t93.5 -169t32 -208v-39h-801q4 -70 30.5 -132t73 -108t110 -74t142.5 -28q86 0 166 33t140 92l73 -100q-74 -74 -172 -113t-221 -39q-111 0 -203 38t-158.5 106.5t-104.5 164t-38 212.5z M238 1434h160l303 -295h-117zM258 557h649q0 55 -19.5 113.5t-59.5 106.5t-101 79t-145 31q-80 0 -139.5 -31t-99.5 -78t-61.5 -105.5t-23.5 -115.5z" />
<glyph unicode="&#xe9;" horiz-adv-x="1153" d="M96 496q0 106 37 201.5t101.5 165t153.5 110.5t196 41q113 0 200.5 -41t149 -113t93.5 -169t32 -208v-39h-801q4 -70 30.5 -132t73 -108t110 -74t142.5 -28q86 0 166 33t140 92l73 -100q-74 -74 -172 -113t-221 -39q-111 0 -203 38t-158.5 106.5t-104.5 164t-38 212.5z M258 557h649q0 55 -19.5 113.5t-59.5 106.5t-101 79t-145 31q-80 0 -139.5 -31t-99.5 -78t-61.5 -105.5t-23.5 -115.5zM467 1139l303 295h160l-346 -295h-117z" />
<glyph unicode="&#xea;" horiz-adv-x="1153" d="M96 496q0 106 37 201.5t101.5 165t153.5 110.5t196 41q113 0 200.5 -41t149 -113t93.5 -169t32 -208v-39h-801q4 -70 30.5 -132t73 -108t110 -74t142.5 -28q86 0 166 33t140 92l73 -100q-74 -74 -172 -113t-221 -39q-111 0 -203 38t-158.5 106.5t-104.5 164t-38 212.5z M258 557h649q0 55 -19.5 113.5t-59.5 106.5t-101 79t-145 31q-80 0 -139.5 -31t-99.5 -78t-61.5 -105.5t-23.5 -115.5zM315 1139l195 295h147l201 -295h-105l-170 217l-164 -217h-104z" />
<glyph unicode="&#xeb;" horiz-adv-x="1153" d="M96 496q0 106 37 201.5t101.5 165t153.5 110.5t196 41q113 0 200.5 -41t149 -113t93.5 -169t32 -208v-39h-801q4 -70 30.5 -132t73 -108t110 -74t142.5 -28q86 0 166 33t140 92l73 -100q-74 -74 -172 -113t-221 -39q-111 0 -203 38t-158.5 106.5t-104.5 164t-38 212.5z M258 557h649q0 55 -19.5 113.5t-59.5 106.5t-101 79t-145 31q-80 0 -139.5 -31t-99.5 -78t-61.5 -105.5t-23.5 -115.5zM278 1237q0 39 28 66.5t69 27.5q39 0 66.5 -27.5t27.5 -66.5q0 -41 -28 -68.5t-66 -27.5q-41 0 -69 27.5t-28 68.5zM700 1237q0 39 29 66.5t67 27.5 q39 0 68 -27.5t29 -66.5q0 -41 -29 -68.5t-68 -27.5t-67.5 27.5t-28.5 68.5z" />
<glyph unicode="&#xec;" horiz-adv-x="460" d="M-115 1434h160l303 -295h-117zM154 0v989h153v-989h-153z" />
<glyph unicode="&#xed;" horiz-adv-x="460" d="M115 1139l303 295h160l-346 -295h-117zM154 0v989h153v-989h-153z" />
<glyph unicode="&#xee;" horiz-adv-x="460" d="M-39 1139l195 295h147l201 -295h-105l-170 217l-164 -217h-104zM154 0v989h153v-989h-153z" />
<glyph unicode="&#xef;" horiz-adv-x="460" d="M-74 1237q0 39 28 66.5t69 27.5q39 0 66.5 -27.5t27.5 -66.5q0 -41 -28 -68.5t-66 -27.5q-41 0 -69 27.5t-28 68.5zM154 0v989h153v-989h-153zM348 1237q0 39 29 66.5t67 27.5q39 0 68 -27.5t29 -66.5q0 -41 -29 -68.5t-68 -27.5t-67.5 27.5t-28.5 68.5z" />
<glyph unicode="&#xf0;" d="M96 479q0 106 33 198.5t93.5 160t143.5 105.5t181 38q96 0 176 -42t147 -140q-57 102 -141 187t-186 161l-293 -129l-37 86l242 106q-37 25 -76 49.5t-78 49.5l84 127q59 -37 117.5 -76t111.5 -80l222 98l34 -84l-176 -77q82 -72 153 -151t121 -167t78.5 -186.5 t28.5 -206.5q0 -115 -33.5 -212t-97 -168t-155 -111t-203.5 -40q-111 0 -201 38t-154.5 105.5t-99.5 160t-35 200.5zM256 479q0 -74 21.5 -139.5t63.5 -116.5t103.5 -80.5t141.5 -29.5t140 29.5t102 80.5t63.5 117t21.5 139q0 72 -21.5 138.5t-63.5 116.5t-102 80t-140 30 t-141.5 -30t-103.5 -80t-63.5 -116.5t-21.5 -138.5z" />
<glyph unicode="&#xf1;" horiz-adv-x="1128" d="M154 0v989h153v-143q27 31 64 60.5t83 54t98 39t107 14.5q315 0 316 -320v-694h-154v647q0 131 -60.5 180.5t-160.5 49.5q-45 0 -88 -12.5t-82 -34t-70.5 -49t-52.5 -58.5v-723h-153zM246 1147q0 121 50 197.5t149 76.5q55 0 87.5 -29.5t56.5 -64.5t47.5 -64.5 t60.5 -29.5q41 0 69.5 42t28.5 134h92q0 -121 -50.5 -197.5t-148.5 -76.5q-55 0 -87.5 29.5t-57.5 64.5t-47.5 64.5t-59.5 29.5q-41 0 -69.5 -42t-28.5 -134h-92z" />
<glyph unicode="&#xf2;" d="M96 496q0 106 34 201.5t97.5 165t154.5 110.5t204 41t204 -41t154.5 -110.5t97 -165t33.5 -201.5q0 -109 -33.5 -203t-97 -165t-154.5 -112t-204 -41t-204 41t-154.5 112t-97.5 165t-34 203zM240 1434h160l303 -295h-117zM256 496q0 -76 21.5 -145.5t63.5 -122t103.5 -84 t141.5 -31.5t140 31.5t102 84t63.5 122t21.5 145.5t-21.5 144.5t-63.5 120.5t-102 84t-140 32t-141.5 -32t-103.5 -84t-63.5 -121t-21.5 -144z" />
<glyph unicode="&#xf3;" d="M96 496q0 106 34 201.5t97.5 165t154.5 110.5t204 41t204 -41t154.5 -110.5t97 -165t33.5 -201.5q0 -109 -33.5 -203t-97 -165t-154.5 -112t-204 -41t-204 41t-154.5 112t-97.5 165t-34 203zM256 496q0 -76 21.5 -145.5t63.5 -122t103.5 -84t141.5 -31.5t140 31.5t102 84 t63.5 122t21.5 145.5t-21.5 144.5t-63.5 120.5t-102 84t-140 32t-141.5 -32t-103.5 -84t-63.5 -121t-21.5 -144zM469 1139l303 295h160l-346 -295h-117z" />
<glyph unicode="&#xf4;" d="M96 496q0 106 34 201.5t97.5 165t154.5 110.5t204 41t204 -41t154.5 -110.5t97 -165t33.5 -201.5q0 -109 -33.5 -203t-97 -165t-154.5 -112t-204 -41t-204 41t-154.5 112t-97.5 165t-34 203zM256 496q0 -76 21.5 -145.5t63.5 -122t103.5 -84t141.5 -31.5t140 31.5t102 84 t63.5 122t21.5 145.5t-21.5 144.5t-63.5 120.5t-102 84t-140 32t-141.5 -32t-103.5 -84t-63.5 -121t-21.5 -144zM315 1139l195 295h147l201 -295h-105l-170 217l-164 -217h-104z" />
<glyph unicode="&#xf5;" d="M96 496q0 106 34 201.5t97.5 165t154.5 110.5t204 41t204 -41t154.5 -110.5t97 -165t33.5 -201.5q0 -109 -33.5 -203t-97 -165t-154.5 -112t-204 -41t-204 41t-154.5 112t-97.5 165t-34 203zM256 496q0 -76 21.5 -145.5t63.5 -122t103.5 -84t141.5 -31.5t140 31.5t102 84 t63.5 122t21.5 145.5t-21.5 144.5t-63.5 120.5t-102 84t-140 32t-141.5 -32t-103.5 -84t-63.5 -121t-21.5 -144zM266 1147q0 121 50 197.5t149 76.5q55 0 87.5 -29.5t56.5 -64.5t47.5 -64.5t60.5 -29.5q41 0 69.5 42t28.5 134h92q0 -121 -50.5 -197.5t-148.5 -76.5 q-55 0 -87.5 29.5t-57.5 64.5t-47.5 64.5t-59.5 29.5q-41 0 -69.5 -42t-28.5 -134h-92z" />
<glyph unicode="&#xf6;" d="M96 496q0 106 34 201.5t97.5 165t154.5 110.5t204 41t204 -41t154.5 -110.5t97 -165t33.5 -201.5q0 -109 -33.5 -203t-97 -165t-154.5 -112t-204 -41t-204 41t-154.5 112t-97.5 165t-34 203zM256 496q0 -76 21.5 -145.5t63.5 -122t103.5 -84t141.5 -31.5t140 31.5t102 84 t63.5 122t21.5 145.5t-21.5 144.5t-63.5 120.5t-102 84t-140 32t-141.5 -32t-103.5 -84t-63.5 -121t-21.5 -144zM278 1237q0 39 28 66.5t69 27.5q39 0 66.5 -27.5t27.5 -66.5q0 -41 -28 -68.5t-66 -27.5q-41 0 -69 27.5t-28 68.5zM700 1237q0 39 29 66.5t67 27.5 q39 0 68 -27.5t29 -66.5q0 -41 -29 -68.5t-68 -27.5t-67.5 27.5t-28.5 68.5z" />
<glyph unicode="&#xf7;" horiz-adv-x="1046" d="M59 637v106h928v-106h-928zM430 295q0 39 26.5 66.5t65.5 27.5q41 0 68.5 -27.5t27.5 -66.5t-27.5 -66.5t-68.5 -27.5q-39 0 -65.5 27.5t-26.5 66.5zM430 1077q0 41 26.5 67.5t65.5 26.5q41 0 68.5 -26.5t27.5 -67.5q0 -39 -27.5 -66.5t-68.5 -27.5q-39 0 -65.5 27.5 t-26.5 66.5z" />
<glyph unicode="&#xf8;" d="M96 496q0 106 34 201.5t97.5 165t154.5 110.5t204 41q82 0 152.5 -21.5t127.5 -62.5l47 59h111l-92 -117q70 -72 106.5 -168t36.5 -208q0 -109 -33.5 -203t-97 -165t-155 -112t-203.5 -41q-170 0 -291 93l-53 -68h-111l98 125q-66 72 -99.5 166t-33.5 205zM256 496 q0 -143 70 -248l448 567q-78 61 -188 62q-80 0 -141.5 -32t-103.5 -84t-63.5 -120.5t-21.5 -144.5zM385 182q41 -33 90.5 -51t110.5 -18q80 0 140 31.5t102 84t63.5 122t21.5 145.5q0 150 -77 256z" />
<glyph unicode="&#xf9;" horiz-adv-x="1128" d="M154 291v698h153v-651q0 -66 15.5 -109t45 -69.5t70.5 -36.5t90 -10q90 0 170 45t123 104v727h154v-989h-154v139q-57 -66 -149 -115t-203 -49q-156 0 -235.5 77t-79.5 239zM217 1434h160l303 -295h-117z" />
<glyph unicode="&#xfa;" horiz-adv-x="1128" d="M154 291v698h153v-651q0 -66 15.5 -109t45 -69.5t70.5 -36.5t90 -10q90 0 170 45t123 104v727h154v-989h-154v139q-57 -66 -149 -115t-203 -49q-156 0 -235.5 77t-79.5 239zM446 1139l303 295h160l-346 -295h-117z" />
<glyph unicode="&#xfb;" horiz-adv-x="1128" d="M154 291v698h153v-651q0 -66 15.5 -109t45 -69.5t70.5 -36.5t90 -10q90 0 170 45t123 104v727h154v-989h-154v139q-57 -66 -149 -115t-203 -49q-156 0 -235.5 77t-79.5 239zM293 1139l195 295h147l201 -295h-105l-170 217l-164 -217h-104z" />
<glyph unicode="&#xfc;" horiz-adv-x="1128" d="M154 291v698h153v-651q0 -66 15.5 -109t45 -69.5t70.5 -36.5t90 -10q90 0 170 45t123 104v727h154v-989h-154v139q-57 -66 -149 -115t-203 -49q-156 0 -235.5 77t-79.5 239zM260 1237q0 39 28 66.5t69 27.5q39 0 66.5 -27.5t27.5 -66.5q0 -41 -28 -68.5t-66 -27.5 q-41 0 -69 27.5t-28 68.5zM682 1237q0 39 29 66.5t67 27.5q39 0 68 -27.5t29 -66.5q0 -41 -29 -68.5t-68 -27.5t-67.5 27.5t-28.5 68.5z" />
<glyph unicode="&#xfd;" horiz-adv-x="1003" d="M6 989h166l330 -811l327 811h168l-495 -1190q-45 -109 -119 -153.5t-172 -46.5q-25 0 -57.5 4t-55.5 10l25 139q16 -8 40.5 -12t43.5 -4q51 0 86 21.5t61 82.5l66 150zM385 1139l303 295h160l-346 -295h-117z" />
<glyph unicode="&#xfe;" d="M154 -377v1743h153v-524q53 76 141.5 124t192.5 48q98 0 179 -36t139.5 -102.5t90 -163t31.5 -216.5q0 -121 -31.5 -217.5t-90 -164t-139.5 -103.5t-179 -36q-102 0 -188 45.5t-146 129.5v-527h-153zM307 272q41 -66 122 -112.5t173 -46.5q74 0 133.5 28.5t100.5 79.5 t62.5 122t21.5 153t-21.5 151.5t-62.5 120.5t-100.5 80t-133.5 29q-92 0 -173 -46.5t-122 -111.5v-447z" />
<glyph unicode="&#xff;" horiz-adv-x="1003" d="M6 989h166l330 -811l327 811h168l-495 -1190q-45 -109 -119 -153.5t-172 -46.5q-25 0 -57.5 4t-55.5 10l25 139q16 -8 40.5 -12t43.5 -4q51 0 86 21.5t61 82.5l66 150zM194 1237q0 39 28 66.5t69 27.5q39 0 66.5 -27.5t27.5 -66.5q0 -41 -28 -68.5t-66 -27.5 q-41 0 -69 27.5t-28 68.5zM616 1237q0 39 29 66.5t67 27.5q39 0 68 -27.5t29 -66.5q0 -41 -29 -68.5t-68 -27.5t-67.5 27.5t-28.5 68.5z" />
<glyph unicode="&#x152;" horiz-adv-x="2263" d="M104 682q0 152 48.5 281t135.5 223t208.5 147t271.5 53q72 0 143.5 -16t135 -50t118 -84t90.5 -118v248h897v-152h-727v-440h713v-151h-713v-471h727v-152h-897v246q-37 -68 -91 -118t-117.5 -84t-135 -51.5t-143.5 -17.5q-150 0 -271.5 53.5t-208.5 148.5t-135.5 224 t-48.5 281zM281 682q0 -121 34.5 -222.5t101 -175t160 -115.5t209.5 -42q160 0 285 83t184 247v450q-59 164 -185 246t-284 82q-117 0 -210 -42t-159.5 -115.5t-101 -175t-34.5 -220.5z" />
<glyph unicode="&#x153;" horiz-adv-x="1970" d="M96 496q0 106 34 201.5t97.5 165t154.5 110.5t204 41q92 0 161.5 -30t118.5 -73t81 -92t48 -88q16 39 49 88t82.5 92t118 73t156.5 30q113 0 201 -41t149 -113t93 -169t32 -208v-39h-799q4 -70 31 -132t72 -108t108.5 -74t143.5 -28q86 0 166.5 33t140.5 92l73 -100 q-76 -74 -174 -113t-219 -39q-96 0 -166.5 28t-122 71t-85 92t-52.5 92q-18 -41 -50 -90t-80 -92t-116.5 -72t-160.5 -29q-113 0 -204 41t-154.5 112t-97.5 165t-34 203zM256 496q0 -78 22.5 -149t64.5 -123t103.5 -82.5t139.5 -30.5t138 30.5t102 82.5t64.5 123t22.5 149 t-22.5 146.5t-64.5 120.5t-102 83t-138 31t-139.5 -31t-103.5 -83t-64.5 -121t-22.5 -146zM1075 557h651q-2 55 -21 113.5t-59 106.5t-101.5 79t-145.5 31q-80 0 -139.5 -31t-99.5 -78t-61.5 -105.5t-23.5 -115.5z" />
<glyph unicode="&#x178;" horiz-adv-x="1282" d="M18 1366h199l424 -635l424 635h199l-537 -788v-578h-170v578zM338 1579q0 39 28 66.5t69 27.5q39 0 66.5 -27.5t27.5 -66.5q0 -41 -28 -68.5t-66 -27.5q-41 0 -69 27.5t-28 68.5zM760 1579q0 39 29 66.5t67 27.5q39 0 68 -27.5t29 -66.5q0 -41 -29 -68.5t-68 -27.5 t-67.5 27.5t-28.5 68.5z" />
<glyph unicode="&#x2c6;" horiz-adv-x="542" d="M0 1139l195 295h147l201 -295h-105l-170 217l-164 -217h-104z" />
<glyph unicode="&#x2dc;" horiz-adv-x="641" d="M0 1147q0 121 50 197.5t149 76.5q55 0 87.5 -29.5t56.5 -64.5t47.5 -64.5t60.5 -29.5q41 0 69.5 42t28.5 134h92q0 -121 -50.5 -197.5t-148.5 -76.5q-55 0 -87.5 29.5t-57.5 64.5t-47.5 64.5t-59.5 29.5q-41 0 -69.5 -42t-28.5 -134h-92z" />
<glyph unicode="&#x2000;" horiz-adv-x="908" />
<glyph unicode="&#x2001;" horiz-adv-x="1817" />
<glyph unicode="&#x2002;" horiz-adv-x="908" />
<glyph unicode="&#x2003;" horiz-adv-x="1817" />
<glyph unicode="&#x2004;" horiz-adv-x="605" />
<glyph unicode="&#x2005;" horiz-adv-x="454" />
<glyph unicode="&#x2006;" horiz-adv-x="302" />
<glyph unicode="&#x2007;" horiz-adv-x="302" />
<glyph unicode="&#x2008;" horiz-adv-x="227" />
<glyph unicode="&#x2009;" horiz-adv-x="363" />
<glyph unicode="&#x200a;" horiz-adv-x="100" />
<glyph unicode="&#x2010;" horiz-adv-x="614" d="M61 428v135h492v-135h-492z" />
<glyph unicode="&#x2011;" horiz-adv-x="614" d="M61 428v135h492v-135h-492z" />
<glyph unicode="&#x2012;" horiz-adv-x="614" d="M61 428v135h492v-135h-492z" />
<glyph unicode="&#x2013;" horiz-adv-x="1214" d="M61 428v135h1092v-135h-1092z" />
<glyph unicode="&#x2014;" horiz-adv-x="1705" d="M61 428v135h1584v-135h-1584z" />
<glyph unicode="&#x2018;" horiz-adv-x="471" d="M96 1079q0 94 48.5 175t117.5 132l76 -61q-49 -33 -87 -87t-44 -103q4 0 12 1t14 1q43 0 72 -29t29 -76q0 -45 -32 -76.5t-77 -31.5q-51 0 -90 39.5t-39 115.5z" />
<glyph unicode="&#x2019;" horiz-adv-x="471" d="M117 985q49 33 88 87t45 104q-8 -4 -29 -5q-43 0 -70.5 29t-27.5 76q0 45 30.5 77.5t77.5 32.5q51 0 90 -39.5t39 -115.5q0 -94 -48 -176t-119 -133z" />
<glyph unicode="&#x201a;" horiz-adv-x="471" d="M117 -197q49 33 88 86.5t45 104.5q-8 -4 -29 -4q-43 0 -70.5 28.5t-27.5 75.5q0 45 30.5 78t77.5 33q51 0 90 -41t39 -115q0 -94 -48 -176t-119 -133z" />
<glyph unicode="&#x201c;" horiz-adv-x="798" d="M111 1079q0 94 47 175t118 132l76 -61q-49 -33 -88 -87t-43 -103q2 0 10.5 1t16.5 1q43 0 70.5 -29t27.5 -76q0 -45 -30.5 -76.5t-77.5 -31.5q-51 0 -89 39.5t-38 115.5zM438 1079q0 94 47 175t119 132l76 -61q-49 -33 -87 -87t-44 -103q2 0 10 1t16 1q43 0 72 -29 t29 -76q0 -45 -32 -76.5t-79 -31.5q-51 0 -89 39.5t-38 115.5z" />
<glyph unicode="&#x201d;" horiz-adv-x="798" d="M117 985q49 33 88 87t45 104q-8 -4 -29 -5q-43 0 -70.5 29t-27.5 76q0 45 30.5 77.5t77.5 32.5q51 0 90 -39.5t39 -115.5q0 -94 -48 -176t-119 -133zM446 985q49 33 87 87t45 104q-4 -2 -12.5 -3.5t-14.5 -1.5q-43 0 -71.5 29t-28.5 76q0 45 31.5 77.5t76.5 32.5 q51 0 90 -39.5t39 -115.5q0 -94 -48 -176t-118 -133z" />
<glyph unicode="&#x201e;" horiz-adv-x="798" d="M117 -197q49 33 88 86.5t45 104.5q-8 -4 -29 -4q-43 0 -70.5 28.5t-27.5 75.5q0 45 30.5 78t77.5 33q51 0 90 -41t39 -115q0 -94 -48 -176t-119 -133zM446 -197q49 33 87 86.5t45 104.5q-4 -2 -12.5 -3t-14.5 -1q-43 0 -71.5 28.5t-28.5 75.5q0 45 31.5 78t76.5 33 q51 0 90 -41t39 -115q0 -94 -48 -176t-118 -133z" />
<glyph unicode="&#x2022;" horiz-adv-x="733" d="M147 496q0 45 17.5 85t48.5 70.5t71 48t85 17.5t85 -17.5t70.5 -48t48 -70.5t17.5 -85t-17.5 -85t-48 -70t-70.5 -47.5t-85 -17.5t-85 17.5t-71 47.5t-48.5 70t-17.5 85z" />
<glyph unicode="&#x2026;" horiz-adv-x="1413" d="M123 92q0 47 31.5 80t78.5 33t80 -33t33 -80q0 -45 -32.5 -78.5t-80.5 -33.5q-47 0 -78.5 33.5t-31.5 78.5zM594 92q0 47 31.5 80t79.5 33q47 0 80.5 -33t33.5 -80q0 -45 -33.5 -78.5t-80.5 -33.5t-79 33.5t-32 78.5zM1065 92q0 47 32.5 80t80.5 33q47 0 79.5 -33 t32.5 -80q0 -45 -32.5 -78.5t-79.5 -33.5t-80 33.5t-33 78.5z" />
<glyph unicode="&#x202f;" horiz-adv-x="363" />
<glyph unicode="&#x2039;" horiz-adv-x="604" d="M61 498l328 362h154l-328 -362l328 -369h-154z" />
<glyph unicode="&#x203a;" horiz-adv-x="604" d="M61 129l328 369l-328 362h154l328 -362l-328 -369h-154z" />
<glyph unicode="&#x205f;" horiz-adv-x="454" />
<glyph unicode="&#x20ac;" horiz-adv-x="1423" d="M63 485v107h89q-2 23 -3.5 45t-1.5 45t1.5 47.5t3.5 46.5h-89v107h109q31 115 94.5 208t152.5 159.5t198.5 102.5t232.5 36q90 0 167 -20.5t141.5 -57.5t116.5 -86t93 -107l-143 -80q-59 86 -158.5 142.5t-216.5 56.5q-88 0 -166 -25.5t-142.5 -71.5t-112.5 -111.5 t-75 -145.5h621v-107h-645q-6 -47 -6 -94t6 -90h645v-107h-621q27 -82 75 -147.5t112.5 -112.5t142.5 -72.5t166 -25.5q117 0 216 55.5t159 143.5l145 -80q-86 -117 -212 -194t-308 -77q-123 0 -233.5 36t-199.5 102.5t-151.5 161t-93.5 210.5h-109z" />
<glyph unicode="&#x2122;" horiz-adv-x="929" d="M35 1313v53h311v-53h-127v-398h-57v398h-127zM420 915v451h88l131 -328l131 328h88v-451h-57v373l-154 -373h-16l-154 373v-373h-57z" />
<glyph unicode="&#x25fc;" horiz-adv-x="990" d="M0 0v990h990v-990h-990z" />
<hkern g1="B" 	g2="quotedbl,quotesingle,registered,quoteleft,quoteright,quotedblleft,quotedblright,trademark" 	k="20" />
<hkern g1="B" 	g2="T" 	k="35" />
<hkern g1="B" 	g2="W" 	k="20" />
<hkern g1="B" 	g2="V" 	k="27" />
<hkern g1="B" 	g2="Y,Yacute,Ydieresis" 	k="61" />
<hkern g1="C,Ccedilla" 	g2="question" 	k="6" />
<hkern g1="C,Ccedilla" 	g2="W" 	k="6" />
<hkern g1="C,Ccedilla" 	g2="V" 	k="4" />
<hkern g1="C,Ccedilla" 	g2="Y,Yacute,Ydieresis" 	k="33" />
<hkern g1="C,Ccedilla" 	g2="A,Agrave,Aacute,Acircumflex,Atilde,Adieresis,Aring,AE" 	k="6" />
<hkern g1="D,O,Q,Eth,Ograve,Oacute,Ocircumflex,Otilde,Odieresis,Oslash,Thorn" 	g2="question" 	k="33" />
<hkern g1="D,O,Q,Eth,Ograve,Oacute,Ocircumflex,Otilde,Odieresis,Oslash,Thorn" 	g2="quotedbl,quotesingle,registered,quoteleft,quoteright,quotedblleft,quotedblright,trademark" 	k="20" />
<hkern g1="D,O,Q,Eth,Ograve,Oacute,Ocircumflex,Otilde,Odieresis,Oslash,Thorn" 	g2="J" 	k="41" />
<hkern g1="D,O,Q,Eth,Ograve,Oacute,Ocircumflex,Otilde,Odieresis,Oslash,Thorn" 	g2="T" 	k="55" />
<hkern g1="D,O,Q,Eth,Ograve,Oacute,Ocircumflex,Otilde,Odieresis,Oslash,Thorn" 	g2="W" 	k="41" />
<hkern g1="D,O,Q,Eth,Ograve,Oacute,Ocircumflex,Otilde,Odieresis,Oslash,Thorn" 	g2="V" 	k="41" />
<hkern g1="D,O,Q,Eth,Ograve,Oacute,Ocircumflex,Otilde,Odieresis,Oslash,Thorn" 	g2="Y,Yacute,Ydieresis" 	k="82" />
<hkern g1="D,O,Q,Eth,Ograve,Oacute,Ocircumflex,Otilde,Odieresis,Oslash,Thorn" 	g2="A,Agrave,Aacute,Acircumflex,Atilde,Adieresis,Aring,AE" 	k="76" />
<hkern g1="D,O,Q,Eth,Ograve,Oacute,Ocircumflex,Otilde,Odieresis,Oslash,Thorn" 	g2="Z" 	k="35" />
<hkern g1="D,O,Q,Eth,Ograve,Oacute,Ocircumflex,Otilde,Odieresis,Oslash,Thorn" 	g2="comma,period,quotesinglbase,quotedblbase,ellipsis" 	k="55" />
<hkern g1="D,O,Q,Eth,Ograve,Oacute,Ocircumflex,Otilde,Odieresis,Oslash,Thorn" 	g2="X" 	k="61" />
<hkern g1="F" 	g2="J" 	k="121" />
<hkern g1="F" 	g2="A,Agrave,Aacute,Acircumflex,Atilde,Adieresis,Aring,AE" 	k="74" />
<hkern g1="F" 	g2="comma,period,quotesinglbase,quotedblbase,ellipsis" 	k="102" />
<hkern g1="F" 	g2="ampersand" 	k="12" />
<hkern g1="G" 	g2="question" 	k="12" />
<hkern g1="G" 	g2="T" 	k="6" />
<hkern g1="G" 	g2="W" 	k="6" />
<hkern g1="G" 	g2="V" 	k="12" />
<hkern g1="G" 	g2="Y,Yacute,Ydieresis" 	k="18" />
<hkern g1="G" 	g2="A,Agrave,Aacute,Acircumflex,Atilde,Adieresis,Aring,AE" 	k="6" />
<hkern g1="G" 	g2="X" 	k="6" />
<hkern g1="K" 	g2="C,G,O,Q,Ccedilla,Ograve,Oacute,Ocircumflex,Otilde,Odieresis,Oslash,OE" 	k="111" />
<hkern g1="K" 	g2="Y,Yacute,Ydieresis" 	k="43" />
<hkern g1="K" 	g2="f,uniFB01,uniFB02,uniFB03,uniFB04" 	k="53" />
<hkern g1="K" 	g2="u,uni00B5,ugrave,uacute,ucircumflex,udieresis" 	k="41" />
<hkern g1="K" 	g2="t" 	k="80" />
<hkern g1="K" 	g2="w" 	k="82" />
<hkern g1="K" 	g2="v" 	k="123" />
<hkern g1="K" 	g2="y,yacute,ydieresis" 	k="123" />
<hkern g1="K" 	g2="hyphen,periodcentered,endash,emdash" 	k="102" />
<hkern g1="K" 	g2="a,agrave,aacute,acircumflex,atilde,adieresis,aring,ae" 	k="35" />
<hkern g1="K" 	g2="c,d,e,g,o,q,cent,ccedilla,egrave,eacute,ecircumflex,edieresis,eth,ograve,oacute,ocircumflex,otilde,odieresis,oslash,oe" 	k="70" />
<hkern g1="K" 	g2="x" 	k="53" />
<hkern g1="L" 	g2="question" 	k="233" />
<hkern g1="L" 	g2="quotedbl,quotesingle,registered,quoteleft,quoteright,quotedblleft,quotedblright,trademark" 	k="250" />
<hkern g1="L" 	g2="C,G,O,Q,Ccedilla,Ograve,Oacute,Ocircumflex,Otilde,Odieresis,Oslash,OE" 	k="70" />
<hkern g1="L" 	g2="asterisk" 	k="356" />
<hkern g1="L" 	g2="U,Ugrave,Uacute,Ucircumflex,Udieresis" 	k="55" />
<hkern g1="L" 	g2="T" 	k="205" />
<hkern g1="L" 	g2="W" 	k="135" />
<hkern g1="L" 	g2="V" 	k="184" />
<hkern g1="L" 	g2="Y,Yacute,Ydieresis" 	k="252" />
<hkern g1="L" 	g2="u,uni00B5,ugrave,uacute,ucircumflex,udieresis" 	k="29" />
<hkern g1="L" 	g2="t" 	k="68" />
<hkern g1="L" 	g2="w" 	k="76" />
<hkern g1="L" 	g2="v" 	k="117" />
<hkern g1="L" 	g2="y,yacute,ydieresis" 	k="117" />
<hkern g1="L" 	g2="ampersand" 	k="14" />
<hkern g1="L" 	g2="a,agrave,aacute,acircumflex,atilde,adieresis,aring,ae" 	k="29" />
<hkern g1="L" 	g2="c,d,e,g,o,q,cent,ccedilla,egrave,eacute,ecircumflex,edieresis,eth,ograve,oacute,ocircumflex,otilde,odieresis,oslash,oe" 	k="43" />
<hkern g1="P" 	g2="J" 	k="223" />
<hkern g1="P" 	g2="Y,Yacute,Ydieresis" 	k="6" />
<hkern g1="P" 	g2="A,Agrave,Aacute,Acircumflex,Atilde,Adieresis,Aring,AE" 	k="158" />
<hkern g1="P" 	g2="comma,period,quotesinglbase,quotedblbase,ellipsis" 	k="193" />
<hkern g1="P" 	g2="X" 	k="18" />
<hkern g1="P" 	g2="ampersand" 	k="53" />
<hkern g1="P" 	g2="hyphen,periodcentered,endash,emdash" 	k="70" />
<hkern g1="P" 	g2="a,agrave,aacute,acircumflex,atilde,adieresis,aring,ae" 	k="41" />
<hkern g1="P" 	g2="c,d,e,g,o,q,cent,ccedilla,egrave,eacute,ecircumflex,edieresis,eth,ograve,oacute,ocircumflex,otilde,odieresis,oslash,oe" 	k="27" />
<hkern g1="R" 	g2="quotedbl,quotesingle,registered,quoteleft,quoteright,quotedblleft,quotedblright,trademark" 	k="6" />
<hkern g1="R" 	g2="T" 	k="20" />
<hkern g1="R" 	g2="V" 	k="20" />
<hkern g1="R" 	g2="Y,Yacute,Ydieresis" 	k="33" />
<hkern g1="R" 	g2="ampersand" 	k="6" />
<hkern g1="R" 	g2="a,agrave,aacute,acircumflex,atilde,adieresis,aring,ae" 	k="41" />
<hkern g1="R" 	g2="c,d,e,g,o,q,cent,ccedilla,egrave,eacute,ecircumflex,edieresis,eth,ograve,oacute,ocircumflex,otilde,odieresis,oslash,oe" 	k="61" />
<hkern g1="R" 	g2="s" 	k="12" />
<hkern g1="S" 	g2="T" 	k="12" />
<hkern g1="S" 	g2="Y,Yacute,Ydieresis" 	k="20" />
<hkern g1="S" 	g2="t" 	k="35" />
<hkern g1="S" 	g2="w" 	k="6" />
<hkern g1="S" 	g2="v" 	k="12" />
<hkern g1="S" 	g2="y,yacute,ydieresis" 	k="12" />
<hkern g1="S" 	g2="A,Agrave,Aacute,Acircumflex,Atilde,Adieresis,Aring,AE" 	k="20" />
<hkern g1="S" 	g2="x" 	k="27" />
<hkern g1="T" 	g2="C,G,O,Q,Ccedilla,Ograve,Oacute,Ocircumflex,Otilde,Odieresis,Oslash,OE" 	k="55" />
<hkern g1="T" 	g2="J" 	k="170" />
<hkern g1="T" 	g2="S" 	k="6" />
<hkern g1="T" 	g2="f,uniFB01,uniFB02,uniFB03,uniFB04" 	k="63" />
<hkern g1="T" 	g2="u,uni00B5,ugrave,uacute,ucircumflex,udieresis" 	k="174" />
<hkern g1="T" 	g2="w" 	k="115" />
<hkern g1="T" 	g2="v" 	k="115" />
<hkern g1="T" 	g2="y,yacute,ydieresis" 	k="115" />
<hkern g1="T" 	g2="A,Agrave,Aacute,Acircumflex,Atilde,Adieresis,Aring,AE" 	k="137" />
<hkern g1="T" 	g2="comma,period,quotesinglbase,quotedblbase,ellipsis" 	k="190" />
<hkern g1="T" 	g2="ampersand" 	k="117" />
<hkern g1="T" 	g2="hyphen,periodcentered,endash,emdash" 	k="123" />
<hkern g1="T" 	g2="a,agrave,aacute,acircumflex,atilde,adieresis,aring,ae" 	k="195" />
<hkern g1="T" 	g2="c,d,e,g,o,q,cent,ccedilla,egrave,eacute,ecircumflex,edieresis,eth,ograve,oacute,ocircumflex,otilde,odieresis,oslash,oe" 	k="236" />
<hkern g1="T" 	g2="x" 	k="135" />
<hkern g1="T" 	g2="s" 	k="186" />
<hkern g1="T" 	g2="colon,semicolon" 	k="102" />
<hkern g1="T" 	g2="m,n,p,r,z,ntilde" 	k="174" />
<hkern g1="J,U,Ugrave,Uacute,Ucircumflex,Udieresis" 	g2="J" 	k="25" />
<hkern g1="J,U,Ugrave,Uacute,Ucircumflex,Udieresis" 	g2="A,Agrave,Aacute,Acircumflex,Atilde,Adieresis,Aring,AE" 	k="53" />
<hkern g1="J,U,Ugrave,Uacute,Ucircumflex,Udieresis" 	g2="comma,period,quotesinglbase,quotedblbase,ellipsis" 	k="61" />
<hkern g1="V" 	g2="C,G,O,Q,Ccedilla,Ograve,Oacute,Ocircumflex,Otilde,Odieresis,Oslash,OE" 	k="41" />
<hkern g1="V" 	g2="J" 	k="190" />
<hkern g1="V" 	g2="f,uniFB01,uniFB02,uniFB03,uniFB04" 	k="47" />
<hkern g1="V" 	g2="u,uni00B5,ugrave,uacute,ucircumflex,udieresis" 	k="86" />
<hkern g1="V" 	g2="t" 	k="27" />
<hkern g1="V" 	g2="w" 	k="12" />
<hkern g1="V" 	g2="v" 	k="27" />
<hkern g1="V" 	g2="y,yacute,ydieresis" 	k="12" />
<hkern g1="V" 	g2="A,Agrave,Aacute,Acircumflex,Atilde,Adieresis,Aring,AE" 	k="111" />
<hkern g1="V" 	g2="comma,period,quotesinglbase,quotedblbase,ellipsis" 	k="184" />
<hkern g1="V" 	g2="ampersand" 	k="59" />
<hkern g1="V" 	g2="hyphen,periodcentered,endash,emdash" 	k="109" />
<hkern g1="V" 	g2="a,agrave,aacute,acircumflex,atilde,adieresis,aring,ae" 	k="129" />
<hkern g1="V" 	g2="c,d,e,g,o,q,cent,ccedilla,egrave,eacute,ecircumflex,edieresis,eth,ograve,oacute,ocircumflex,otilde,odieresis,oslash,oe" 	k="123" />
<hkern g1="V" 	g2="x" 	k="47" />
<hkern g1="V" 	g2="s" 	k="80" />
<hkern g1="V" 	g2="m,n,p,r,z,ntilde" 	k="86" />
<hkern g1="W" 	g2="C,G,O,Q,Ccedilla,Ograve,Oacute,Ocircumflex,Otilde,Odieresis,Oslash,OE" 	k="41" />
<hkern g1="W" 	g2="J" 	k="78" />
<hkern g1="W" 	g2="f,uniFB01,uniFB02,uniFB03,uniFB04" 	k="27" />
<hkern g1="W" 	g2="u,uni00B5,ugrave,uacute,ucircumflex,udieresis" 	k="61" />
<hkern g1="W" 	g2="t" 	k="27" />
<hkern g1="W" 	g2="v" 	k="6" />
<hkern g1="W" 	g2="y,yacute,ydieresis" 	k="6" />
<hkern g1="W" 	g2="A,Agrave,Aacute,Acircumflex,Atilde,Adieresis,Aring,AE" 	k="96" />
<hkern g1="W" 	g2="comma,period,quotesinglbase,quotedblbase,ellipsis" 	k="137" />
<hkern g1="W" 	g2="ampersand" 	k="41" />
<hkern g1="W" 	g2="hyphen,periodcentered,endash,emdash" 	k="68" />
<hkern g1="W" 	g2="a,agrave,aacute,acircumflex,atilde,adieresis,aring,ae" 	k="82" />
<hkern g1="W" 	g2="c,d,e,g,o,q,cent,ccedilla,egrave,eacute,ecircumflex,edieresis,eth,ograve,oacute,ocircumflex,otilde,odieresis,oslash,oe" 	k="82" />
<hkern g1="W" 	g2="x" 	k="47" />
<hkern g1="W" 	g2="s" 	k="39" />
<hkern g1="W" 	g2="m,n,p,r,z,ntilde" 	k="61" />
<hkern g1="Y,Yacute,Ydieresis" 	g2="C,G,O,Q,Ccedilla,Ograve,Oacute,Ocircumflex,Otilde,Odieresis,Oslash,OE" 	k="82" />
<hkern g1="Y,Yacute,Ydieresis" 	g2="J" 	k="231" />
<hkern g1="Y,Yacute,Ydieresis" 	g2="S" 	k="41" />
<hkern g1="Y,Yacute,Ydieresis" 	g2="f,uniFB01,uniFB02,uniFB03,uniFB04" 	k="100" />
<hkern g1="Y,Yacute,Ydieresis" 	g2="u,uni00B5,ugrave,uacute,ucircumflex,udieresis" 	k="184" />
<hkern g1="Y,Yacute,Ydieresis" 	g2="t" 	k="53" />
<hkern g1="Y,Yacute,Ydieresis" 	g2="w" 	k="123" />
<hkern g1="Y,Yacute,Ydieresis" 	g2="v" 	k="123" />
<hkern g1="Y,Yacute,Ydieresis" 	g2="y,yacute,ydieresis" 	k="123" />
<hkern g1="Y,Yacute,Ydieresis" 	g2="A,Agrave,Aacute,Acircumflex,Atilde,Adieresis,Aring,AE" 	k="129" />
<hkern g1="Y,Yacute,Ydieresis" 	g2="comma,period,quotesinglbase,quotedblbase,ellipsis" 	k="184" />
<hkern g1="Y,Yacute,Ydieresis" 	g2="ampersand" 	k="123" />
<hkern g1="Y,Yacute,Ydieresis" 	g2="hyphen,periodcentered,endash,emdash" 	k="238" />
<hkern g1="Y,Yacute,Ydieresis" 	g2="a,agrave,aacute,acircumflex,atilde,adieresis,aring,ae" 	k="248" />
<hkern g1="Y,Yacute,Ydieresis" 	g2="c,d,e,g,o,q,cent,ccedilla,egrave,eacute,ecircumflex,edieresis,eth,ograve,oacute,ocircumflex,otilde,odieresis,oslash,oe" 	k="260" />
<hkern g1="Y,Yacute,Ydieresis" 	g2="x" 	k="150" />
<hkern g1="Y,Yacute,Ydieresis" 	g2="s" 	k="205" />
<hkern g1="Y,Yacute,Ydieresis" 	g2="colon,semicolon" 	k="121" />
<hkern g1="Y,Yacute,Ydieresis" 	g2="m,n,p,r,z,ntilde" 	k="184" />
<hkern g1="Z" 	g2="C,G,O,Q,Ccedilla,Ograve,Oacute,Ocircumflex,Otilde,Odieresis,Oslash,OE" 	k="35" />
<hkern g1="a,h,m,n,agrave,aacute,acircumflex,atilde,adieresis,aring,ntilde" 	g2="question" 	k="74" />
<hkern g1="a,h,m,n,agrave,aacute,acircumflex,atilde,adieresis,aring,ntilde" 	g2="quotedbl,quotesingle,registered,quoteleft,quoteright,quotedblleft,quotedblright,trademark" 	k="12" />
<hkern g1="a,h,m,n,agrave,aacute,acircumflex,atilde,adieresis,aring,ntilde" 	g2="T" 	k="221" />
<hkern g1="a,h,m,n,agrave,aacute,acircumflex,atilde,adieresis,aring,ntilde" 	g2="W" 	k="88" />
<hkern g1="a,h,m,n,agrave,aacute,acircumflex,atilde,adieresis,aring,ntilde" 	g2="V" 	k="135" />
<hkern g1="a,h,m,n,agrave,aacute,acircumflex,atilde,adieresis,aring,ntilde" 	g2="Y,Yacute,Ydieresis" 	k="225" />
<hkern g1="ampersand" 	g2="T" 	k="152" />
<hkern g1="ampersand" 	g2="W" 	k="98" />
<hkern g1="ampersand" 	g2="V" 	k="102" />
<hkern g1="ampersand" 	g2="Y,Yacute,Ydieresis" 	k="186" />
<hkern g1="asterisk" 	g2="J" 	k="238" />
<hkern g1="asterisk" 	g2="A,Agrave,Aacute,Acircumflex,Atilde,Adieresis,Aring,AE" 	k="207" />
<hkern g1="b,o,p,ograve,oacute,ocircumflex,otilde,odieresis,oslash,thorn" 	g2="question" 	k="94" />
<hkern g1="b,o,p,ograve,oacute,ocircumflex,otilde,odieresis,oslash,thorn" 	g2="quotedbl,quotesingle,registered,quoteleft,quoteright,quotedblleft,quotedblright,trademark" 	k="20" />
<hkern g1="b,o,p,ograve,oacute,ocircumflex,otilde,odieresis,oslash,thorn" 	g2="T" 	k="236" />
<hkern g1="b,o,p,ograve,oacute,ocircumflex,otilde,odieresis,oslash,thorn" 	g2="W" 	k="82" />
<hkern g1="b,o,p,ograve,oacute,ocircumflex,otilde,odieresis,oslash,thorn" 	g2="V" 	k="123" />
<hkern g1="b,o,p,ograve,oacute,ocircumflex,otilde,odieresis,oslash,thorn" 	g2="Y,Yacute,Ydieresis" 	k="254" />
<hkern g1="b,o,p,ograve,oacute,ocircumflex,otilde,odieresis,oslash,thorn" 	g2="comma,period,quotesinglbase,quotedblbase,ellipsis" 	k="14" />
<hkern g1="b,o,p,ograve,oacute,ocircumflex,otilde,odieresis,oslash,thorn" 	g2="x" 	k="76" />
<hkern g1="c,cent,ccedilla" 	g2="question" 	k="47" />
<hkern g1="c,cent,ccedilla" 	g2="quotedbl,quotesingle,registered,quoteleft,quoteright,quotedblleft,quotedblright,trademark" 	k="6" />
<hkern g1="c,cent,ccedilla" 	g2="T" 	k="166" />
<hkern g1="c,cent,ccedilla" 	g2="W" 	k="47" />
<hkern g1="c,cent,ccedilla" 	g2="V" 	k="74" />
<hkern g1="c,cent,ccedilla" 	g2="Y,Yacute,Ydieresis" 	k="129" />
<hkern g1="colon,semicolon" 	g2="T" 	k="102" />
<hkern g1="colon,semicolon" 	g2="Y,Yacute,Ydieresis" 	k="121" />
<hkern g1="e,ae,egrave,eacute,ecircumflex,edieresis,oe" 	g2="question" 	k="74" />
<hkern g1="e,ae,egrave,eacute,ecircumflex,edieresis,oe" 	g2="quotedbl,quotesingle,registered,quoteleft,quoteright,quotedblleft,quotedblright,trademark" 	k="6" />
<hkern g1="e,ae,egrave,eacute,ecircumflex,edieresis,oe" 	g2="asterisk" 	k="35" />
<hkern g1="e,ae,egrave,eacute,ecircumflex,edieresis,oe" 	g2="T" 	k="207" />
<hkern g1="e,ae,egrave,eacute,ecircumflex,edieresis,oe" 	g2="W" 	k="82" />
<hkern g1="e,ae,egrave,eacute,ecircumflex,edieresis,oe" 	g2="V" 	k="109" />
<hkern g1="e,ae,egrave,eacute,ecircumflex,edieresis,oe" 	g2="Y,Yacute,Ydieresis" 	k="225" />
<hkern g1="e,ae,egrave,eacute,ecircumflex,edieresis,oe" 	g2="comma,period,quotesinglbase,quotedblbase,ellipsis" 	k="14" />
<hkern g1="eth" 	g2="comma,period,quotesinglbase,quotedblbase,ellipsis" 	k="14" />
<hkern g1="f" 	g2="question" 	k="-117" />
<hkern g1="f" 	g2="quotedbl,quotesingle,registered,quoteleft,quoteright,quotedblleft,quotedblright,trademark" 	k="-137" />
<hkern g1="f" 	g2="asterisk" 	k="-137" />
<hkern g1="f" 	g2="S" 	k="-47" />
<hkern g1="f" 	g2="U,Ugrave,Uacute,Ucircumflex,Udieresis" 	k="-82" />
<hkern g1="f" 	g2="T" 	k="-82" />
<hkern g1="f" 	g2="W" 	k="-129" />
<hkern g1="f" 	g2="V" 	k="-129" />
<hkern g1="f" 	g2="Y,Yacute,Ydieresis" 	k="-115" />
<hkern g1="f" 	g2="Z" 	k="-82" />
<hkern g1="f" 	g2="comma,period,quotesinglbase,quotedblbase,ellipsis" 	k="88" />
<hkern g1="f" 	g2="X" 	k="-82" />
<hkern g1="f" 	g2="ampersand" 	k="6" />
<hkern g1="f" 	g2="exclam,B,D,E,F,H,I,K,L,M,N,P,R,Egrave,Eacute,Ecircumflex,Edieresis,Igrave,Iacute,Icircumflex,Idieresis,Eth,Ntilde" 	k="-82" />
<hkern g1="f" 	g2="parenright,bracketright,braceright" 	k="-152" />
<hkern g1="g,j,q" 	g2="question" 	k="47" />
<hkern g1="g,j,q" 	g2="T" 	k="174" />
<hkern g1="g,j,q" 	g2="W" 	k="61" />
<hkern g1="g,j,q" 	g2="V" 	k="86" />
<hkern g1="g,j,q" 	g2="Y,Yacute,Ydieresis" 	k="184" />
<hkern g1="g,j,q" 	g2="j" 	k="-94" />
<hkern g1="hyphen,periodcentered,endash,emdash" 	g2="W" 	k="68" />
<hkern g1="hyphen,periodcentered,endash,emdash" 	g2="V" 	k="109" />
<hkern g1="hyphen,periodcentered,endash,emdash" 	g2="Y,Yacute,Ydieresis" 	k="223" />
<hkern g1="hyphen,periodcentered,endash,emdash" 	g2="X" 	k="88" />
<hkern g1="k" 	g2="T" 	k="141" />
<hkern g1="k" 	g2="W" 	k="47" />
<hkern g1="k" 	g2="V" 	k="47" />
<hkern g1="k" 	g2="Y,Yacute,Ydieresis" 	k="135" />
<hkern g1="k" 	g2="bullet" 	k="55" />
<hkern g1="k" 	g2="hyphen,periodcentered,endash,emdash" 	k="55" />
<hkern g1="k" 	g2="c,d,e,g,o,q,cent,ccedilla,egrave,eacute,ecircumflex,edieresis,eth,ograve,oacute,ocircumflex,otilde,odieresis,oslash,oe" 	k="6" />
<hkern g1="comma,period,quotesinglbase,quotedblbase,ellipsis" 	g2="quotedbl,quotesingle,registered,quoteleft,quoteright,quotedblleft,quotedblright,trademark" 	k="156" />
<hkern g1="comma,period,quotesinglbase,quotedblbase,ellipsis" 	g2="U,Ugrave,Uacute,Ucircumflex,Udieresis" 	k="61" />
<hkern g1="comma,period,quotesinglbase,quotedblbase,ellipsis" 	g2="T" 	k="190" />
<hkern g1="comma,period,quotesinglbase,quotedblbase,ellipsis" 	g2="W" 	k="137" />
<hkern g1="comma,period,quotesinglbase,quotedblbase,ellipsis" 	g2="V" 	k="178" />
<hkern g1="comma,period,quotesinglbase,quotedblbase,ellipsis" 	g2="Y,Yacute,Ydieresis" 	k="184" />
<hkern g1="comma,period,quotesinglbase,quotedblbase,ellipsis" 	g2="f,uniFB01,uniFB02,uniFB03,uniFB04" 	k="47" />
<hkern g1="comma,period,quotesinglbase,quotedblbase,ellipsis" 	g2="t" 	k="47" />
<hkern g1="comma,period,quotesinglbase,quotedblbase,ellipsis" 	g2="w" 	k="90" />
<hkern g1="comma,period,quotesinglbase,quotedblbase,ellipsis" 	g2="v" 	k="137" />
<hkern g1="comma,period,quotesinglbase,quotedblbase,ellipsis" 	g2="y,yacute,ydieresis" 	k="117" />
<hkern g1="comma,period,quotesinglbase,quotedblbase,ellipsis" 	g2="c,d,e,g,o,q,cent,ccedilla,egrave,eacute,ecircumflex,edieresis,eth,ograve,oacute,ocircumflex,otilde,odieresis,oslash,oe" 	k="14" />
<hkern g1="comma,period,quotesinglbase,quotedblbase,ellipsis" 	g2="j" 	k="-82" />
<hkern g1="comma,period,quotesinglbase,quotedblbase,ellipsis" 	g2="seven" 	k="135" />
<hkern g1="comma,period,quotesinglbase,quotedblbase,ellipsis" 	g2="one" 	k="160" />
<hkern g1="comma,period,quotesinglbase,quotedblbase,ellipsis" 	g2="zero,six" 	k="63" />
<hkern g1="questiondown" 	g2="j" 	k="-328" />
<hkern g1="quotedbl,quotesingle,quoteleft,quoteright,quotedblleft,quotedblright" 	g2="C,G,O,Q,Ccedilla,Ograve,Oacute,Ocircumflex,Otilde,Odieresis,Oslash,OE" 	k="6" />
<hkern g1="quotedbl,quotesingle,quoteleft,quoteright,quotedblleft,quotedblright" 	g2="J" 	k="188" />
<hkern g1="quotedbl,quotesingle,quoteleft,quoteright,quotedblleft,quotedblright" 	g2="A,Agrave,Aacute,Acircumflex,Atilde,Adieresis,Aring,AE" 	k="213" />
<hkern g1="quotedbl,quotesingle,quoteleft,quoteright,quotedblleft,quotedblright" 	g2="comma,period,quotesinglbase,quotedblbase,ellipsis" 	k="156" />
<hkern g1="quotedbl,quotesingle,quoteleft,quoteright,quotedblleft,quotedblright" 	g2="s" 	k="61" />
<hkern g1="r" 	g2="T" 	k="98" />
<hkern g1="r" 	g2="W" 	k="12" />
<hkern g1="r" 	g2="V" 	k="47" />
<hkern g1="r" 	g2="Y,Yacute,Ydieresis" 	k="102" />
<hkern g1="r" 	g2="comma,period,quotesinglbase,quotedblbase,ellipsis" 	k="170" />
<hkern g1="r" 	g2="X" 	k="18" />
<hkern g1="s" 	g2="question" 	k="88" />
<hkern g1="s" 	g2="quotedbl,quotesingle,registered,quoteleft,quoteright,quotedblleft,quotedblright,trademark" 	k="41" />
<hkern g1="s" 	g2="T" 	k="180" />
<hkern g1="s" 	g2="W" 	k="80" />
<hkern g1="s" 	g2="V" 	k="88" />
<hkern g1="s" 	g2="Y,Yacute,Ydieresis" 	k="190" />
<hkern g1="s" 	g2="X" 	k="6" />
<hkern g1="t" 	g2="T" 	k="106" />
<hkern g1="t" 	g2="W" 	k="27" />
<hkern g1="t" 	g2="V" 	k="53" />
<hkern g1="t" 	g2="Y,Yacute,Ydieresis" 	k="68" />
<hkern g1="u,z,uni00B5,ugrave,uacute,ucircumflex,udieresis" 	g2="question" 	k="47" />
<hkern g1="u,z,uni00B5,ugrave,uacute,ucircumflex,udieresis" 	g2="T" 	k="174" />
<hkern g1="u,z,uni00B5,ugrave,uacute,ucircumflex,udieresis" 	g2="W" 	k="61" />
<hkern g1="u,z,uni00B5,ugrave,uacute,ucircumflex,udieresis" 	g2="V" 	k="86" />
<hkern g1="u,z,uni00B5,ugrave,uacute,ucircumflex,udieresis" 	g2="Y,Yacute,Ydieresis" 	k="184" />
<hkern g1="v" 	g2="T" 	k="115" />
<hkern g1="v" 	g2="W" 	k="6" />
<hkern g1="v" 	g2="V" 	k="27" />
<hkern g1="v" 	g2="Y,Yacute,Ydieresis" 	k="123" />
<hkern g1="v" 	g2="A,Agrave,Aacute,Acircumflex,Atilde,Adieresis,Aring,AE" 	k="41" />
<hkern g1="v" 	g2="comma,period,quotesinglbase,quotedblbase,ellipsis" 	k="137" />
<hkern g1="v" 	g2="X" 	k="76" />
<hkern g1="w" 	g2="T" 	k="115" />
<hkern g1="w" 	g2="V" 	k="12" />
<hkern g1="w" 	g2="Y,Yacute,Ydieresis" 	k="123" />
<hkern g1="w" 	g2="A,Agrave,Aacute,Acircumflex,Atilde,Adieresis,Aring,AE" 	k="35" />
<hkern g1="w" 	g2="comma,period,quotesinglbase,quotedblbase,ellipsis" 	k="90" />
<hkern g1="w" 	g2="X" 	k="90" />
<hkern g1="y,yacute,ydieresis" 	g2="question" 	k="6" />
<hkern g1="y,yacute,ydieresis" 	g2="T" 	k="115" />
<hkern g1="y,yacute,ydieresis" 	g2="W" 	k="6" />
<hkern g1="y,yacute,ydieresis" 	g2="V" 	k="12" />
<hkern g1="y,yacute,ydieresis" 	g2="Y,Yacute,Ydieresis" 	k="123" />
<hkern g1="y,yacute,ydieresis" 	g2="A,Agrave,Aacute,Acircumflex,Atilde,Adieresis,Aring,AE" 	k="41" />
<hkern g1="y,yacute,ydieresis" 	g2="comma,period,quotesinglbase,quotedblbase,ellipsis" 	k="117" />
<hkern g1="y,yacute,ydieresis" 	g2="X" 	k="76" />
<hkern g1="X" 	g2="C,G,O,Q,Ccedilla,Ograve,Oacute,Ocircumflex,Otilde,Odieresis,Oslash,OE" 	k="61" />
<hkern g1="X" 	g2="f,uniFB01,uniFB02,uniFB03,uniFB04" 	k="61" />
<hkern g1="X" 	g2="t" 	k="61" />
<hkern g1="X" 	g2="w" 	k="90" />
<hkern g1="X" 	g2="v" 	k="76" />
<hkern g1="X" 	g2="y,yacute,ydieresis" 	k="76" />
<hkern g1="X" 	g2="hyphen,periodcentered,endash,emdash" 	k="88" />
<hkern g1="zero,nine" 	g2="comma,period,quotesinglbase,quotedblbase,ellipsis" 	k="63" />
<hkern g1="seven" 	g2="comma,period,quotesinglbase,quotedblbase,ellipsis" 	k="199" />
<hkern g1="x" 	g2="T" 	k="135" />
<hkern g1="x" 	g2="W" 	k="47" />
<hkern g1="x" 	g2="V" 	k="47" />
<hkern g1="x" 	g2="Y,Yacute,Ydieresis" 	k="150" />
<hkern g1="x" 	g2="c,d,e,g,o,q,cent,ccedilla,egrave,eacute,ecircumflex,edieresis,eth,ograve,oacute,ocircumflex,otilde,odieresis,oslash,oe" 	k="76" />
<hkern g1="parenleft,bracketleft,braceleft" 	g2="j" 	k="-225" />
</font>
</defs></svg> 